YJCODE	RECECODE	YNAME	NEWYCOST	GENERIC	CALC	HIRISK
2144003F3110	622064602	アラセプリル錠５０ｍｇ「日新」	9.8	True	True	False
2171020F2271	621253401	ニトレンジピン錠１０ｍｇ「日新」	10.1	True	True	False
6343410X6160	621157401	献血アルブミン２０％静注１０ｇ／５０ｍＬ「ニチヤク」	4068	False	False	False
6343414X1051	621384801	ファイバ静注用５００　５００単位１０ｍＬ（溶解液付）	92073	False	False	False
6343429D7041	622408201	ノバクトＭ静注用５００単位　（溶解液付）	21269	False	False	False
7219412P3040	622432301	バイステージ注３７０シリンジ６５ｍＬ　７５．５２％	2725	True	True	False
1179041F3010	622473700	パロキセチン塩酸塩５ｍｇ錠	10.6	True	True	True
2492420A1021	622410901	インスリン　グラルギンＢＳ注カート「リリー」　３００単位	873	True	True	True
3332001F1121	620811503	ワルファリンＫ錠１ｍｇ「日新」	9.8	False	False	True
1124007F1160	622106502	トリアゾラム錠０．１２５ｍｇ「日新」	5.7	True	True	False
1139002C1090	620062701	カルバマゼピン細粒５０％「フジナガ」	14.6	True	True	True
1139002F1100	620062901	カルバマゼピン錠２００ｍｇ「フジナガ」	6.4	True	True	True
1139002F2050	620063201	カルバマゼピン錠１００ｍｇ「フジナガ」	5.7	True	True	True
1313700Q2011	622693600	オキシブプロカイン塩酸塩０．４％１ｍＬ点眼液	13.6	False	False	False
1139004F2190	620065401	バルプロ酸Ｎａ錠２００ｍｇ「フジナガ」	10.1	True	True	True
1141007F1160	621677401	アセトアミノフェン錠２００ｍｇ「タカタ」	6.7	True	True	False
1141007R1060	621520701	アセトアミノフェンＤＳ小児用２０％「タカタ」	8.6	True	True	False
2149039F2011	622474000	ロサルタンカリウム５０ｍｇ錠	23.6	True	True	False
1129006F2010	622708100	リルマザホン塩酸塩２ｍｇ錠	14.5	True	True	False
1147700J2240	621362225	ジクロフェナクＮａ坐剤２５ｍｇ「ツルハラ」	20.3	True	True	False
1149402A1080	620109703	ケトプロフェン筋注５０ｍｇ「日新」	57	True	True	False
1162001C1051	621392101	ビペリデン塩酸塩細粒１％「アメル」	15.9	True	True	False
1179025F3100	622423301	エチゾラム錠０．２５ｍｇ「ＴＣＫ」	5.9	True	True	True
1179025F3150	622439401	エチゾラム錠０．２５ｍｇ「フジナガ」	5.9	True	True	True
1179042C2020	622418701	クエチアピン細粒１０％「アメル」	48.8	True	True	True
1214400A7071	621537102	リドカイン塩酸塩注射液１％「ファイザー」　５ｍＬ	59	True	True	False
1214400H1071	621537402	リドカイン塩酸塩注射液２％「ファイザー」　１０ｍＬ	98	True	True	False
1229403F1050	621225801	ベクロニウム静注用４ｍｇ「Ｆ」　（溶解液付）	217	True	True	False
2149040F3010	622474300	カンデサルタンシレキセチル８ｍｇ錠	20.4	True	True	False
2119404A1220	621365321	ドブタミン点滴静注液１００ｍｇ「ファイザー」	227	True	True	False
2149041F4011	622474900	バルサルタン１６０ｍｇ錠	35.3	True	True	False
1249008F1240	620191201	アフロクアロン錠２０ｍｇ「サワイ」	6.9	True	True	False
2115401A1210	620239401	ジプロフィリン注３００ｍｇ「日新」　１５％２ｍＬ	51	True	True	False
2115404A1051	621561901	アミノフィリン静注２５０ｍｇＰＢ「日新」　２．５％１０ｍＬ	57	False	False	True
2119404G4060	620248003	ドブタミン点滴静注６００ｍｇキットファイザー　０．３％２００ｍＬ	2111	True	True	False
2129002M2260	620257104	ジソピラミドカプセル１００ｍｇ「ファイザー」	18.2	True	True	True
2129008M2160	621693904	ピルシカイニド塩酸塩カプセル５０ｍｇ「ＣＨ」	31.1	True	True	True
2132003F1451	620263901	トリクロルメチアジド錠２ｍｇ「ＴＣＫ」	6.2	True	True	False
2144008F1200	621835001	イミダプリル塩酸塩錠２．５ｍｇ「テバ」	11.5	True	True	False
2149010F1190	620290102	メトプロロール酒石酸塩錠２０ｍｇ「テバ」	7.4	True	True	True
2149026F3290	621681801	ドキサゾシン錠２ｍｇ「ＭＥＤ」	14.9	True	True	False
2149027F2191	621630801	マニジピン塩酸塩錠１０ｍｇ「日新」	10.6	True	True	False
2149032F2150	621682001	カルベジロール錠２０ｍｇ「ＴＣＫ」	31.7	True	True	True
1179057G1021	622546701	インチュニブ錠１ｍｇ	410.7	False	False	True
2189015F2011	622475100	アトルバスタチンカルシウム１０ｍｇ錠	19.4	True	True	False
2590009F4011	622475300	ナフトピジル５０ｍｇ口腔内崩壊錠	19.1	True	True	False
4490025F2011	622475900	オロパタジン塩酸塩５ｍｇ錠	10.1	True	True	False
6241005F2310	621139104	ノルフロキサシン錠２００ｍｇ「サワイ」	64.2	False	False	False
6119400A3010	622477200	アルベカシン硫酸塩２５ｍｇ０．５ｍＬ注射液	2225	False	False	False
6131001C2011	622745200	アモキシシリン２００ｍｇ細粒	12.4	True	True	False
2160004F2031	622418101	ゾルミトリプタンＯＤ錠２．５ｍｇ「ＪＧ」	242.8	True	True	False
2160004F2040	622418601	ゾルミトリプタンＯＤ錠２．５ｍｇ「アメル」	242.8	True	True	False
2160004F2090	622417301	ゾルミトリプタンＯＤ錠２．５ｍｇ「ファイザー」	242.8	True	True	False
2171005F2161	622106702	ジラゼプ塩酸塩錠１００ｍｇ「日新」	5.9	True	True	False
2171021F1261	621793502	ベニジピン塩酸塩錠２ｍｇ「ＮＳ」	10.1	True	True	False
2171021F1270	621726901	ベニジピン塩酸塩錠２ｍｇ「テバ」	10.1	True	True	False
2189010F2450	621532501	プラバスタチンＮａ錠１０ｍｇ「ＮＳ」	25.6	True	True	False
2189016F2270	622421701	ピタバスタチンＣａ錠２ｍｇ「ＪＧ」	29.5	True	True	False
2189016F3241	622427801	ピタバスタチンＣａ錠４ｍｇ「ケミファ」	96.1	True	True	False
2189016F3250	622431401	ピタバスタチンＣａ錠４ｍｇ「サンド」	58.6	True	True	False
2189016F4051	622419701	ピタバスタチンＣａ・ＯＤ錠１ｍｇ「明治」	15.7	True	True	False
2189016F5040	622434401	ピタバスタチンＣａ・ＯＤ錠２ｍｇ「ＭＥＥＫ」	25	True	True	False
2190501A2090	620368201	グリポーゼ配合点滴静注　３００ｍＬ	251	True	True	False
2190501A3100	621841301	グリセリン・果糖配合点滴静注「ＨＫ」　５００ｍＬ	303	True	True	False
3231401Q3141	620738010	ブドウ糖注射液「ＡＹ」５％　５００ｍＬ	177	False	False	False
1169700S5020	622478301	ニュープロパッチ１８ｍｇ	950.8	False	False	False
1179056F1021	622496801	シクレスト舌下錠５ｍｇ	256.7	False	False	True
2259713G2020	622414801	エクリラ４００μｇジェヌエア６０吸入用	5725.3	False	False	False
2290401D1020	622489001	ヌーカラ皮下注用１００ｍｇ	179269	False	False	False
4291044M1021	622485301	ジカディアカプセル１５０ｍｇ	6413.6	False	False	True
4291046M1020	622484901	タフィンラーカプセル５０ｍｇ	4950.6	False	False	True
2190501A5080	620369401	グリセレブ配合点滴静注　５００ｍＬ	303	True	True	False
2229001F1070	620377701	ジメモルファンリン酸塩錠１０ｍｇ「ＴＣＫ」	5.7	False	False	False
2229001Q1070	620377901	ジメモルファンリン酸塩シロップ小児用０．２５％「ＴＣＫ」	2.9	True	True	False
2233002R2061	622412001	カルボシステインＤＳ５０％「トーワ」	9.9	True	True	False
2259701G1071	621556501	クロモグリク酸Ｎａ吸入液１％「サワイ」　２ｍＬ	31.8	True	True	False
2325003F2390	621631301	ファモチジン錠２０ｍｇ「ＭＥＤ」	10.1	True	True	False
6199104X2020	622485501	ボノサップパック８００	793.8	False	False	False
6343447D2021	622489401	コバールトリイ静注用５００　５００国際単位（溶解液付）	49046	False	False	False
6343447D5020	622489701	コバールトリイ静注用３０００　３０００国際単位（溶解液付）	235876	False	False	False
6419005F1020	622500501	プリマキン錠１５ｍｇ「サノフィ」	2252.8	False	False	False
2359007F1020	622546601	スインプロイク錠０．２ｍｇ	277.1	False	False	False
2343001X1240	620475126	合成ケイ酸アルミニウム「ファイザー」原末	2.35	False	False	False
2357701K6220	620484801	グリセリン浣腸液５０％「ムネ」６０ｍＬ	107.7	False	False	False
1169013F2031	622492501	ロピニロール錠１ｍｇ「ＪＧ」	52.6	True	True	False
1169014F1030	622490101	エンタカポン錠１００ｍｇ「ＪＧ」	54.4	True	True	False
1179041F2331	622488801	パロキセチン錠２０ｍｇ「アスペン」	35.2	True	True	True
1179041F3320	622488601	パロキセチン錠５ｍｇ「アスペン」	10.6	True	True	True
1179044C1030	622480501	オランザピン細粒１％「ＤＳＥＰ」	65.1	True	True	True
1179044C1081	622501201	オランザピン細粒１％「日医工」	102.4	True	True	True
1179044C1090	622506401	オランザピン細粒１％「ニプロ」	65.1	True	True	True
1179044C1111	622502601	オランザピン細粒１％「明治」	102.4	True	True	True
1179044C1120	622504101	オランザピン細粒１％「ヨシトミ」	102.4	True	True	True
1179044F1061	622492701	オランザピン錠２．５ｍｇ「ＫＮ」	17.3	True	True	True
1179044F1070	622472401	オランザピン錠２．５ｍｇ「ＹＤ」	17.3	True	True	True
1179044F1100	622483601	オランザピン錠２．５ｍｇ「杏林」	17.3	True	True	True
1179044F1150	622500901	オランザピン錠２．５ｍｇ「日医工」	17.3	True	True	True
1179044F2041	622503301	オランザピン錠５ｍｇ「ＥＥ」	31.4	True	True	True
1179044F2050	622490301	オランザピン錠５ｍｇ「ＪＧ」	31.4	True	True	True
1179044F2130	622494801	オランザピン錠５ｍｇ「テバ」	31.4	True	True	True
1179044F2181	622493701	オランザピン錠５ｍｇ「ファイザー」	31.4	True	True	True
1179044F2190	622502101	オランザピン錠５ｍｇ「明治」	51.3	True	True	True
1179044F3030	622480101	オランザピン錠１０ｍｇ「ＤＳＥＰ」	61.7	True	True	True
1179044F3080	622498901	オランザピン錠１０ｍｇ「アメル」	61.7	True	True	True
1179044F3110	622497501	オランザピン錠１０ｍｇ「サワイ」	61.7	True	True	True
1179044F3161	622493101	オランザピン錠１０ｍｇ「日新」	61.7	True	True	True
1179044F3170	622506701	オランザピン錠１０ｍｇ「ニプロ」	61.7	True	True	True
1179044F3200	622503801	オランザピン錠１０ｍｇ「ヨシトミ」	61.7	True	True	True
1179044F4060	622499401	オランザピンＯＤ錠５ｍｇ「アメル」	31.4	True	True	True
1179044F4141	622502401	オランザピンＯＤ錠５ｍｇ「明治」	51.3	True	True	True
1179044F4150	622503901	オランザピンＯＤ錠５ｍｇ「ヨシトミ」	31.4	True	True	True
1179044F5040	622490701	オランザピンＯＤ錠１０ｍｇ「ＪＧ」	61.7	True	True	True
1179044F5091	622495201	オランザピンＯＤ錠１０ｍｇ「テバ」	61.7	True	True	True
1179044F5121	622506301	オランザピンＯＤ錠１０ｍｇ「ニプロ」	61.7	True	True	True
1179044F5130	622494101	オランザピンＯＤ錠１０ｍｇ「ファイザー」	61.7	True	True	True
1179044F6071	622483901	オランザピンＯＤ錠２．５ｍｇ「杏林」	17.3	True	True	True
1179044F6080	622483201	オランザピンＯＤ錠２．５ｍｇ「タカタ」	17.3	True	True	True
1179044F6101	622478601	オランザピンＯＤ錠２．５ｍｇ「トーワ」	17.3	True	True	True
1179044F6110	622493901	オランザピンＯＤ錠２．５ｍｇ「ファイザー」	17.3	True	True	True
1179044F8031	622497201	オランザピン錠２０ｍｇ「ＫＮ」	87.4	True	True	True
1179044F8040	622499001	オランザピン錠２０ｍｇ「アメル」	87.4	True	True	True
1179044F9020	622499201	オランザピンＯＤ錠１．２５ｍｇ「アメル」	10.5	True	True	True
1179046F3080	622480601	セルトラリン錠１００ｍｇ「ＤＳＥＰ」	45.9	True	True	True
1179046F3101	622481601	セルトラリン錠１００ｍｇ「ＴＣＫ」	76.9	True	True	True
1179046F3110	622505701	セルトラリン錠１００ｍｇ「科研」	76.9	True	True	True
1179046F3160	622504401	セルトラリン錠１００ｍｇ「タナベ」	45.9	True	True	True
1179046F5040	622479501	セルトラリンＯＤ錠５０ｍｇ「トーワ」	44.3	True	True	True
1319702Q3070	622491401	チモロールＸＥ点眼液０．２５％「ＪＧ」	137.8	True	True	False
1319720Y2110	622491801	ヒアルロン酸Ｎａ点眼液０．３％「ＪＧ」　５ｍＬ	177.4	True	True	False
2149032F3040	622490801	カルベジロール錠１．２５ｍｇ「ＪＧ」	10.1	True	True	False
2149032F3091	622479201	カルベジロール錠１．２５ｍｇ「トーワ」	10.1	True	True	False
2149032F4071	622504301	カルベジロール錠２．５ｍｇ「タナベ」	10.1	True	True	True
2149032F4080	622496201	カルベジロール錠２．５ｍｇ「テバ」	10.1	True	True	True
2149032F4101	622494401	カルベジロール錠２．５ｍｇ「ファイザー」	10.1	True	True	True
2149037F3051	622491201	シルニジピン錠２０ｍｇ「ＪＧ」	44.2	True	True	False
2149037F3060	622496301	シルニジピン錠２０ｍｇ「テバ」	44.2	True	True	False
2149110F2100	622480901	ロサルヒド配合錠ＨＤ「ＥＰ」	51.2	True	True	False
2149110F2151	622481801	ロサルヒド配合錠ＨＤ「ＴＣＫ」	51.2	True	True	False
2149110F2160	622472701	ロサルヒド配合錠ＨＤ「ＹＤ」	38.2	True	True	False
2149110F2240	622501601	ロサルヒド配合錠ＨＤ「日医工」	51.2	True	True	False
2149111F2040	622495701	カデチア配合錠ＨＤ「テバ」	46.4	True	True	False
2149112F1030	622496601	バルヒディオ配合錠ＭＤ「サンド」	37.6	True	True	False
2189017F4021	622441201	クレストールＯＤ錠５ｍｇ	99.9	False	True	False
2190406G2100	622297402	アルプロスタジル注１０μｇシリンジ「Ｆ」　２ｍＬ	1215	True	True	False
2499403A2041	622507401	オクトレオチド皮下注１００μｇ「ＳＵＮ」　１ｍＬ	1105	True	True	False
2499403A2050	622504801	オクトレオチド皮下注１００μｇ「あすか」　１ｍＬ	1105	True	True	False
2649735S1150	622507601	ロキソプロフェンＮａパップ１００ｍｇ「テイコク」　１０×１４ｃｍ	17.1	True	True	False
3399002F3110	622501801	シロスタゾールＯＤ錠５０ｍｇ「日医工」	12.1	True	True	True
3969008F3021	622462401	グルファストＯＤ錠５ｍｇ	21.2	False	True	True
3999009F2070	622472901	レボカルニチン塩化物錠３００ｍｇ「ＹＤ」	95.6	True	True	False
3999021F1040	622503101	ラロキシフェン塩酸塩錠６０ｍｇ「ＥＥ」	39.4	True	True	False
4224403A2030	622487801	ゲムシタビン点滴静注液１ｇ／２５ｍＬ「ＮＫ」	4591	True	True	True
4229101F2030	622498001	エスエーワン配合ＯＤ錠Ｔ２５　２５ｍｇ（テガフール相当量）	224.9	True	True	True
4291009F2051	622502901	ビカルタミドＯＤ錠８０ｍｇ「あすか」	234.8	True	True	True
4291009F2060	622482001	ビカルタミドＯＤ錠８０ｍｇ「ケミファ」	234.8	True	True	True
4490001C1080	621332601	クロモグリク酸Ｎａ細粒小児用１０％「ＴＣＫ」	25.3	True	True	False
5100048X1071	620961007	高砂キョウカツＭ	6.01	False	False	False
5100052X1051	620961305	高砂クコシＭ	2.88	False	False	False
5100085X1080	620966607	高砂サンソウニンＭ	4.64	False	False	False
5100114X1070	620969707	高砂センタイＭ	7.64	False	False	False
5100150X1050	620974104	高砂バイモＭ	5.33	False	False	False
5100171X1060	620976705	高砂マシニンＭ	1.1	False	False	False
6179001F1031	622480701	ボリコナゾール錠５０ｍｇ「ＤＳＥＰ」	301.4	True	True	False
6179001F1040	622491901	ボリコナゾール錠５０ｍｇ「ＪＧ」	301.4	True	True	False
6179001F1090	622501301	ボリコナゾール錠５０ｍｇ「日医工」	301.4	True	True	False
2473700S6020	622437701	エストラーナテープ０．１８ｍｇ　２．２５ｃｍ２	52.7	False	False	False
2499407D1031	620555101	リュープリン注射用３．７５ｍｇ　（懸濁用液付）	36222	False	False	True
2499407G2050	620555401	リュープリン注射用キット３．７５ｍｇ	32288	False	True	True
2499407G3030	621495301	リュープリンＳＲ注射用キット１１．２５ｍｇ	57105	False	False	True
1179058F1020	622585401	レキサルティ錠１ｍｇ	269.3	False	False	True
6250019D1070	622487601	バラシクロビル顆粒５０％「アスペン」	169.6	True	True	False
6250019F1330	622487501	バラシクロビル錠５００ｍｇ「アスペン」	131.2	True	True	False
8219700T2030	622505101	フェンタニル１日用テープ１．７ｍｇ「明治」	488	True	True	False
8219700T5030	622505401	フェンタニル１日用テープ６．７ｍｇ「明治」	1676.1	True	True	False
1169101S1020	622509401	デュオドーパ配合経腸用液　１００ｍＬ	15282.2	False	False	False
2699805Q1020	622510101	エピデュオゲル	147.2	False	False	False
2590009F1071	622433701	ナフトピジル錠２５ｍｇ「ＫＮ」	10.1	True	True	False
2590009F1080	622423401	ナフトピジル錠２５ｍｇ「ＴＣＫ」	11.4	True	True	False
2590009F1101	622402001	ナフトピジル錠２５ｍｇ「あすか」	11.4	True	True	False
2590009F1110	622405201	ナフトピジル錠２５ｍｇ「杏林」	10.1	True	True	False
2590009F2051	622428701	ナフトピジル錠５０ｍｇ「ＥＥ」	19.1	True	True	False
2590009F2060	622420901	ナフトピジル錠５０ｍｇ「ＪＧ」	23.2	True	True	False
2590009F2140	622435801	ナフトピジル錠５０ｍｇ「日医工」	19.1	True	True	False
2590009F3040	622428801	ナフトピジル錠７５ｍｇ「ＥＥ」	28.3	True	True	False
2590009F3090	622402201	ナフトピジル錠７５ｍｇ「あすか」	33.9	True	True	False
2590009F3120	622414201	ナフトピジル錠７５ｍｇ「トーワ」	33.9	True	True	False
2590009F4070	622433601	ナフトピジルＯＤ錠５０ｍｇ「ＫＮ」	19.1	True	True	False
2590009F4100	622402401	ナフトピジルＯＤ錠５０ｍｇ「あすか」	19.1	True	True	False
2590009F4151	622425301	ナフトピジルＯＤ錠５０ｍｇ「タナベ」	19.1	True	True	False
2590009F4160	622431801	ナフトピジルＯＤ錠５０ｍｇ「テバ」	23.2	True	True	False
5100079A1120	620965811	高砂サンキライ末Ｍ	1.5	False	False	False
2590009F5050	622413101	ナフトピジルＯＤ錠７５ｍｇ「ＦＦＰ」	28.3	True	True	False
2590009F5131	622430401	ナフトピジルＯＤ錠７５ｍｇ「サワイ」	28.3	True	True	False
2590009F5140	622410501	ナフトピジルＯＤ錠７５ｍｇ「タカタ」	28.3	True	True	False
2590009F5190	622428301	ナフトピジルＯＤ錠７５ｍｇ「ニットー」	28.3	True	True	False
2590009F6030	622426901	ナフトピジルＯＤ錠２５ｍｇ「ＤＳＥＰ」	11.4	True	True	False
2590009F6081	622423701	ナフトピジルＯＤ錠２５ｍｇ「ＴＣＫ」	10.1	True	True	False
2590009F6090	622406601	ナフトピジルＯＤ錠２５ｍｇ「ＹＤ」	10.1	True	True	False
2590009F6111	622405501	ナフトピジルＯＤ錠２５ｍｇ「杏林」	10.1	True	True	False
2590009F6120	622422401	ナフトピジルＯＤ錠２５ｍｇ「ケミファ」	11.4	True	True	False
7131400A2161	621171919	注射用蒸留水「ＣＭＸ」　２０ｍＬ	62	False	False	False
4291049M2020	622549101	ニンラーロカプセル３ｍｇ	125640	False	False	True
1179055N1021	622449501	イフェクサーＳＲカプセル３７．５ｍｇ	141.4	False	False	True
4900400X1021	629700101	テムセルＨＳ注　１０．８ｍＬ	884767	False	False	False
1179044F6020	622455001	ジプレキサザイディス錠２．５ｍｇ	89.3	False	True	True
4291024M2020	622456401	レブラミドカプセル２．５ｍｇ	6783.9	False	False	True
4291032M3021	622443801	アレセンサカプセル１５０ｍｇ	6737.1	False	False	True
1179046F1060	622443601	セルトラリン錠２５ｍｇ「ＹＤ」	16.5	True	True	True
1179046F1141	622449701	セルトラリン錠２５ｍｇ「タカタ」	25.5	True	True	True
1179046F1150	622446701	セルトラリン錠２５ｍｇ「タナベ」	16.5	True	True	True
1179046F2040	622454701	セルトラリン錠５０ｍｇ「ＪＧ」	44.3	True	True	True
2590009F6170	622436001	ナフトピジルＯＤ錠２５ｍｇ「日医工」	10.1	True	True	False
2590009F6200	622416801	ナフトピジルＯＤ錠２５ｍｇ「ファイザー」	10.1	True	True	False
2616700Q1700	620580169	ベンザルコニウム塩化物消毒用液１０Ｗ／Ｖ％「ファイザー」　１０％	0.67	False	False	False
2619716Q1240	620592203	アルキルジアミノエチルグリシン消毒１０Ｗ／Ｗ％ファイザー　１０％	0.66	True	True	False
2649729S2240	620644702	ケトプロフェンテープ２０ｍｇ「ＳＮ」　７ｃｍ×１０ｃｍ	12.3	True	True	False
1179046F2091	622442901	セルトラリン錠５０ｍｇ「杏林」	28.8	True	True	True
1179046F2121	622460001	セルトラリン錠５０ｍｇ「サンド」	28.8	True	True	True
1179046F2130	622464001	セルトラリン錠５０ｍｇ「三和」	28.8	True	True	True
1179046F2180	622466301	セルトラリン錠５０ｍｇ「日医工」	28.8	True	True	True
1179046F3071	622459801	セルトラリン錠１００ｍｇ「明治」	76.9	True	True	True
1179046F5031	622463701	セルトラリンＯＤ錠５０ｍｇ「アメル」	28.8	True	True	True
1319720Q3191	621467404	ヒアルロン酸Ｎａ点眼液０．１％「杏林」　５ｍＬ	137.1	True	True	False
1319720Y2101	622443401	ヒアルロン酸Ｎａ点眼液０．３％「杏林」　５ｍＬ	177.4	True	True	False
1319743Q1050	622450801	ブロムフェナクＮａ点眼液０．１％「ニットー」	50.5	True	True	False
1329702R5040	620231104	ベクロメタゾン点鼻液５０μｇファイザー　９．３７５ｍｇ７．５ｇ	400.1	True	True	False
2149040F6060	622459301	カンデサルタンＯＤ錠４ｍｇ「明治」	10.5	True	True	False
2149041F5050	622469401	バルサルタンＯＤ錠２０ｍｇ「科研」	10.1	True	True	False
2149041F7061	622465901	バルサルタンＯＤ錠８０ｍｇ「日医工」	20.8	True	True	False
2149041F7070	622456701	バルサルタンＯＤ錠８０ｍｇ「ファイザー」	20.8	True	True	False
2149041F8041	622452101	バルサルタンＯＤ錠１６０ｍｇ「ＴＣＫ」	35.3	True	True	False
2149041F8050	622469701	バルサルタンＯＤ錠１６０ｍｇ「科研」	51.4	True	True	False
2149044F5020	622452801	オルメテックＯＤ錠１０ｍｇ	50.4	False	True	False
2149110F2070	622464201	ロサルヒド配合錠ＨＤ「三和」	51.2	True	True	False
2149114F1030	622453401	アムバロ配合錠「ＤＳＥＰ」	29.1	True	True	False
2149114F1080	622464301	アムバロ配合錠「ＳＮ」	19.3	True	True	False
2149114F1110	622463801	アムバロ配合錠「アメル」	19.3	True	True	False
2149114F1161	622445301	アムバロ配合錠「ケミファ」	29.1	True	True	False
2149114F1170	622457301	アムバロ配合錠「サワイ」	29.1	True	True	False
2189101F1020	622584101	アトーゼット配合錠ＬＤ	171.8	False	False	False
2149114F1200	622458401	アムバロ配合錠「テバ」	19.3	True	True	False
2149114F1250	622468401	アムバロ配合錠「ニプロ」	19.3	True	True	False
2149116F2051	622468801	カムシア配合錠ＨＤ「ニプロ」	39.3	True	True	False
2900002F5290	620673518	ガンマオリザノール錠５０ｍｇ「ツルハラ」	5.7	True	True	False
3150002F1271	620713802	トコフェロール酢酸エステル錠５０ｍｇ「ファイザー」	5.7	True	True	False
3334403A1090	621701902	ダルテパリンＮａ静注５千Ｕ／５ｍＬ「日新」　５千低ヘパＩＵ	519	True	True	False
3399008F1041	622439801	クロピドグレル錠２５ｍｇ「ＤＫ」	14.4	True	True	True
3399008F1050	622429501	クロピドグレル錠２５ｍｇ「ＥＥ」	14.4	True	True	True
3399008F1130	622424101	クロピドグレル錠２５ｍｇ「ＴＣＫ」	24.9	True	True	True
3399008F1181	622405801	クロピドグレル錠２５ｍｇ「杏林」	14.4	True	True	True
3399008F1190	622422201	クロピドグレル錠２５ｍｇ「ケミファ」	24.9	True	True	True
3399008F1211	622431201	クロピドグレル錠２５ｍｇ「サンド」	24.9	True	True	True
3399008F1220	622432801	クロピドグレル錠２５ｍｇ「三和」	14.4	True	True	True
2189016F1281	622464901	ピタバスタチンＣａ錠１ｍｇ「ＤＫ」	15.7	True	True	False
1190401A2011	622749300	エダラボン３０ｍｇ２０ｍＬ注射液	1133	True	True	False
2189016F4060	622457701	ピタバスタチンＣａ・ＯＤ錠１ｍｇ「サワイ」	15.7	True	True	False
3399008F1270	622425601	クロピドグレル錠２５ｍｇ「日新」	14.4	True	True	True
3399008F1300	622416201	クロピドグレル錠２５ｍｇ「ファイザー」	14.4	True	True	True
3399008F2030	622401901	クロピドグレル錠７５ｍｇ「ＡＡ」	59.8	True	True	True
2190101F1071	622445401	アマルエット配合錠１番「ケミファ」	22.3	True	True	False
2190101F1080	622456901	アマルエット配合錠１番「サワイ」	22.3	True	True	False
2190101F1101	622447601	アマルエット配合錠１番「トーワ」	22.3	True	True	False
2190101F1110	622465301	アマルエット配合錠１番「日医工」	22.3	True	True	False
2190102F1041	622462801	アマルエット配合錠２番「ＥＥ」	35.4	True	True	False
2190102F1050	622444101	アマルエット配合錠２番「ＫＮ」	35.4	True	True	False
2190103F1070	622445601	アマルエット配合錠３番「ケミファ」	27.9	True	True	False
2190103F1100	622447801	アマルエット配合錠３番「トーワ」	27.9	True	True	False
2190104F1040	622463001	アマルエット配合錠４番「ＥＥ」	41	True	True	False
2190104F1091	622461401	アマルエット配合錠４番「サンド」	41	True	True	False
2190104F1121	622468101	アマルエット配合錠４番「ニプロ」	41	True	True	False
3399008F2080	622433401	クロピドグレル錠７５ｍｇ「ＫＮ」	36.9	True	True	True
3399008F2110	622434601	クロピドグレル錠７５ｍｇ「ＳＡＮＩＫ」	59.8	True	True	True
3399008F2161	622418301	クロピドグレル錠７５ｍｇ「アメル」	36.9	True	True	True
3399008F2170	622435601	クロピドグレル錠７５ｍｇ「科研」	59.8	True	True	True
2344009F2090	620477001	酸化マグネシウム錠３３０ｍｇ「ヨシダ」	5.7	True	True	False
2344009F5030	621867901	酸化マグネシウム錠３００ｍｇ「ヨシダ」	5.7	True	True	False
2399009D2020	622442701	ペンタサ顆粒９４％	142.4	False	False	False
2412402A4030	622461601	ソマトロピンＢＳ皮下注１０ｍｇ「サンド」シュアパル	31640	True	True	False
2590008F2170	622444801	タムスロシン塩酸塩ＯＤ錠０．２ｍｇ「ＫＮ」	35.2	True	True	False
2590009F5220	622448501	ナフトピジルＯＤ錠７５ｍｇ「トーワ」	33.9	True	True	False
2649729S3181	622443301	ケトプロフェンテープ４０ｍｇ「杏林」　１０ｃｍ×１４ｃｍ	17.1	True	True	False
2649731S1291	621293701	フェルビナクパップ７０ｍｇ「ユートク」　１０ｃｍ×１４ｃｍ	14	True	True	False
3112401A1050	622471001	マキサカルシトール静注透析用２．５μｇ「ニプロ」　１ｍＬ	279	True	True	False
3112401A2030	622458601	マキサカルシトール静注透析用５μｇ「テバ」　１ｍＬ	371	True	True	False
3112401A3061	622456201	マキサカルシトール静注透析用１０μｇ「ファイザー」　１ｍＬ	494	True	True	False
3319511A5041	622345301	ソリタ－Ｔ３号Ｇ輸液　２００ｍＬ	146	False	False	False
3319511A5050	622446301	ＹＤソリタ－Ｔ３号Ｇ輸液　２００ｍＬ	146	False	False	False
3319524A3020	622345501	ソリタ－Ｔ４号輸液　２００ｍＬ	122	False	False	False
3319531A3020	622344901	ソリタ－Ｔ２号輸液　２００ｍＬ	151	False	False	False
3327002Q1070	620808102	トラネキサム酸シロップ５％「テバ」	3.5	True	True	False
3943001F1640	620856243	アロプリノール錠１００ｍｇ「あゆみ」	7.8	True	True	False
3999009F2061	622470301	レボカルニチン塩化物錠３００ｍｇ「フソー」	95.6	True	True	False
3999021F1031	622458301	ラロキシフェン塩酸塩錠６０ｍｇ「サワイ」	39.4	True	True	False
4240404A2160	622470501	イリノテカン塩酸塩点滴静注液１００ｍｇ「ハンルイ」　５ｍＬ	2988	True	True	True
4490014F1300	621520301	エピナスチン塩酸塩錠１０ｍｇ「ＴＣＫ」	15.2	True	True	False
4490014F2331	621486801	エピナスチン塩酸塩錠２０ｍｇ「日新」	33	True	True	False
4490014F2340	621486402	エピナスチン塩酸塩錠２０ｍｇ「ＴＣＫ」	23.3	True	True	False
6132408F3180	621101803	セフメタゾールＮａ静注用１ｇ「テバ」	449	False	False	False
6132408F4160	621101903	セフメタゾールＮａ静注用２ｇ「テバ」	740	True	True	False
6139504F3050	622464401	スルバクシン静注用３ｇ	345	True	True	False
6139505F3070	622461801	タゾピペ配合静注用２．２５「サンド」　２．２５ｇ	445	True	True	False
6139505F3100	622470601	タゾピペ配合静注用２．２５「ニプロ」　２．２５ｇ	445	True	True	False
6139505F4050	622453801	タゾピペ配合静注用４．５「ＤＳＥＰ」　４．５ｇ	661	True	True	False
6139505G1030	622454001	タゾピペ配合点滴バッグ４．５ＤＳＥＰ　４．５ｇ生食１００ｍＬ	1236	True	True	False
6219001F1110	621133002	サラゾスルファピリジン錠５００ｍｇ「日医工」	12.8	True	True	False
6343410X2130	621755403	献血アルブミン５％静注１２．５ｇ／２５０ｍＬ「ＪＢ」	4665	False	False	False
6343427A3040	621758202	献血ポリグロビンＮ５％静注５ｇ／１００ｍＬ	41187	False	False	False
2646708M1011	622776100	フルオシノニド０．０５％軟膏	7.9	True	True	False
7219415G4091	621535101	イオベリン３００注シリンジ８０ｍＬ　６４．７１％	3732	True	True	False
7990402G1021	622364701	アデノシン負荷用静注６０ｍｇシリンジ「ＦＲＩ」　２０ｍＬ	6124	True	True	False
1119702G1070	622526901	セボフルラン吸入麻酔液「ニッコー」	36.8	True	True	False
1139008F2031	622529901	トピラマート錠１００ｍｇ「アメル」	47.2	True	True	True
1169012G1060	622528201	プラミペキソール塩酸塩ＬＡ錠０．３７５ｍｇＭＩ「オーハラ」	34.6	True	True	False
1169012G2040	622524901	プラミペキソール塩酸塩ＬＡ錠１．５ｍｇＭＩ「ＪＧ」	131	True	True	False
2132003F1460	620264101	トリクロルメチアジド錠２ｍｇ「トーワ」	6.2	True	True	False
4291436A2020	622551901	ザルトラップ点滴静注２００ｍｇ　８ｍＬ	149081	False	False	True
2144002F1350	621243402	エナラプリルマレイン酸塩錠２．５ｍｇ「フソー」	10.1	True	True	False
2149110F2291	622520501	ロサルヒド配合錠ＨＤ「サワイ」	51.2	True	True	False
2149112F1081	622527201	バルヒディオ配合錠ＭＤ「タナベ」	37.6	True	True	False
2149112F1090	622527101	バルヒディオ配合錠ＭＤ「ツルハラ」	37.6	True	True	False
2149112F1111	622529101	バルヒディオ配合錠ＭＤ「日医工」	37.6	True	True	False
2149112F2061	622515101	バルヒディオ配合錠ＥＸ「ＴＣＫ」	38.2	True	True	False
2149112F2070	622520001	バルヒディオ配合錠ＥＸ「サワイ」	38.2	True	True	False
2149112F2100	622513501	バルヒディオ配合錠ＥＸ「トーワ」	38.2	True	True	False
2149116F1071	622519601	カムシア配合錠ＬＤ「日新」	40.3	True	True	False
2149116F2060	622524201	カムシア配合錠ＨＤ「武田テバ」	39.3	True	True	False
2189016F5090	622512101	ピタバスタチンＣａ・ＯＤ錠２ｍｇ「ファイザー」	29.5	True	True	False
2189016F6070	622522301	ピタバスタチンＣａ・ＯＤ錠４ｍｇ「杏林」	58.6	True	True	False
2190026F1030	622510901	ボセンタン錠６２．５ｍｇ「ＤＳＥＰ」	1058.5	True	True	False
2190026F1081	622512301	ボセンタン錠６２．５ｍｇ「ファイザー」	1058.5	True	True	False
2190026F1090	622512801	ボセンタン錠６２．５ｍｇ「モチダ」	1219.3	True	True	False
2399004F1251	621279401	メトクロプラミド錠５ｍｇ「トーワ」	5.7	True	True	False
2499403A1061	622522901	オクトレオチド酢酸塩皮下注５０μｇ「サンド」　１ｍＬ	614	True	True	False
2612701Q4071	622521301	ポビドンヨードフィールド外用液１０％「明治」	1.66	True	True	False
3112401A3070	622514001	マキサカルシトール静注透析用１０μｇ「トーワ」　１ｍＬ	494	True	True	False
3339950R1150	622521601	ヘパリン類似物質外用泡状スプレー０．３％「ニットー」	13.2	True	True	False
3943001F2310	622002402	アロプリノール錠５０ｍｇ「ＴＣＫ」	6.1	True	True	False
3969003F1131	621784902	アカルボース錠５０ｍｇ「テバ」	10	True	True	True
3969003F3061	621896402	アカルボースＯＤ錠５０ｍｇ「テバ」	10	True	True	True
3969008F3030	622518101	ミチグリニドＣａ・ＯＤ錠５ｍｇ「ＦＦＰ」	8.6	True	True	True
3969008F4060	622521001	ミチグリニドＣａ・ＯＤ錠１０ｍｇ「三和」	14.7	True	True	True
3999002F4020	622518801	ブレディニンＯＤ錠５０　５０ｍｇ	198.2	False	True	True
3999021F1090	622514501	ラロキシフェン塩酸塩錠６０ｍｇ「トーワ」	39.4	True	True	False
4490026F2091	622508901	モンテルカスト錠１０ｍｇ「ＣＭＸ」	29.1	True	True	False
4490026F2121	622528101	モンテルカスト錠１０ｍｇ「ＫＮ」	29.1	True	True	False
4490026F2130	622530301	モンテルカスト錠１０ｍｇ「ＫＯ」	29.1	True	True	False
4490026F2180	622528501	モンテルカスト錠１０ｍｇ「オーハラ」	71.9	True	True	False
4490026F2210	622518401	モンテルカスト錠１０ｍｇ「サンド」	29.1	True	True	False
3399008F2200	622430701	クロピドグレル錠７５ｍｇ「サワイ」	59.8	True	True	True
3399008F2250	622431601	クロピドグレル錠７５ｍｇ「テバ」	59.8	True	True	True
3399008F3060	622425001	クロピドグレル錠５０ｍｇ「タナベ」	32.8	True	True	True
3919502A1430	620847301	グルコリン配合静注　２０ｍＬ	57	True	True	False
3962002F2051	622424401	メトホルミン塩酸塩錠２５０ｍｇＭＴ「ＴＣＫ」	10.1	False	False	True
3962002F2060	622421101	メトホルミン塩酸塩錠２５０ｍｇＭＴ「ＴＥ」	10.1	False	False	True
2399017F1020	622532801	リンゼス錠０．２５ｍｇ	87.5	False	False	False
2413406G1020	622515601	オビドレル皮下注シリンジ２５０μｇ　０．５ｍＬ	2909	False	False	False
4490026F2261	622527601	モンテルカスト錠１０ｍｇ「タナベ」	29.1	True	True	False
4490026F2270	622514301	モンテルカスト錠１０ｍｇ「トーワ」	71.9	True	True	False
4490026F2300	622521501	モンテルカスト錠１０ｍｇ「ニットー」	71.9	True	True	False
4490026F3071	622508801	モンテルカスト錠５ｍｇ「ＣＭＸ」	54	True	True	False
4490026F3080	622511001	モンテルカスト錠５ｍｇ「ＤＳＥＰ」	54	True	True	False
4490026F3101	622527901	モンテルカスト錠５ｍｇ「ＫＮ」	22.6	True	True	False
3962002F3031	622427301	メトホルミン塩酸塩錠５００ｍｇＭＴ「ＤＳＥＰ」	10.1	True	True	True
3962002F3040	622422001	メトホルミン塩酸塩錠５００ｍｇＭＴ「ＪＧ」	10.1	True	True	True
3962002F3090	622417201	メトホルミン塩酸塩錠５００ｍｇＭＴ「ファイザー」	10.1	True	True	True
3999013F1371	621682603	エパルレスタット錠５０ｍｇ「ＤＳＥＰ」	33.4	True	True	False
3999014M2061	622438601	タクロリムスカプセル０．５ｍｇ「ニプロ」	163.2	True	True	True
3999014M3041	622370201	タクロリムスカプセル５ｍｇ「ＪＧ」	1771.2	True	True	True
3999014M3050	622438101	タクロリムスカプセル５ｍｇ「サンド」	1771.2	True	True	True
3999415A2100	620901001	チオクト酸注２５ｍｇ「日新」　０．５％５ｍＬ	57	False	False	False
4223401A3030	622412601	フルオロウラシル注１０００ｍｇ「トーワ」　１０００ｍｇ	620	True	True	True
4229101D1041	622434701	エヌケーエスワン配合顆粒Ｔ２０　２０ｍｇ（テガフール相当量）	239.8	True	True	True
8119003F2020	622550301	ナルラピド錠２ｍｇ	206.6	False	False	False
4229101D2030	622430901	エスエーワン配合顆粒Ｔ２５　２５ｍｇ（テガフール相当量）	322.2	True	True	True
4291011F1141	622414301	イマチニブ錠１００ｍｇ「ＪＧ」	808	True	True	True
4291011F1150	622437501	イマチニブ錠１００ｍｇ「ＴＣＫ」	419.4	True	True	True
3399413A1021	622533501	モゾビル皮下注２４ｍｇ　１．２ｍＬ	592749	False	False	False
4490026F3110	622530201	モンテルカスト錠５ｍｇ「ＫＯ」	22.6	True	True	False
3999042F2021	622533901	オテズラ錠２０ｍｇ	659.8	False	False	False
4291015F1050	622429901	レトロゾール錠２．５ｍｇ「Ｆ」	125.3	True	True	True
4291015F1131	622432001	レトロゾール錠２．５ｍｇ「テバ」	125.3	True	True	True
4291015F1140	622412801	レトロゾール錠２．５ｍｇ「トーワ」	142.9	True	True	True
4291015F1190	622411401	レトロゾール錠２．５ｍｇ「ヤクルト」	125.3	True	True	True
4490026F3160	622528401	モンテルカスト錠５ｍｇ「オーハラ」	54	True	True	False
4490026F3241	622527501	モンテルカスト錠５ｍｇ「タナベ」	22.6	True	True	False
4490026F3250	622514401	モンテルカスト錠５ｍｇ「トーワ」	54	True	True	False
2399716K1020	622564901	レクタブル２ｍｇ注腸フォーム１４回　４８ｍｇ３０．８ｇ	6634.3	False	False	True
4490026F4051	622529301	モンテルカストＯＤ錠１０ｍｇ「ＫＮ」	29.1	True	True	False
4490026F4060	622511901	モンテルカストＯＤ錠１０ｍｇ「タカタ」	29.1	True	True	False
4490026F5031	622528001	モンテルカストＯＤ錠５ｍｇ「ＫＮ」	22.6	True	True	False
4490026F5040	622511801	モンテルカストＯＤ錠５ｍｇ「タカタ」	54	True	True	False
6134407A2110	621111802	ゲンタマイシン硫酸塩注射液４０ｍｇ「Ｆ」	291	False	False	False
8119002G4031	622522001	オキシコドン徐放錠４０ｍｇ「第一三共」	598	True	True	False
8219401D1030	622486801	レミフェンタニル静注用２ｍｇ「第一三共」	1064	True	True	False
2649735S2270	622250202	ロキソプロフェンＮａテープ５０ｍｇ「久光」　７ｃｍ×１０ｃｍ	12.3	True	True	False
3999443A2021	622533301	パーサビブ静注透析用５ｍｇ　２ｍＬ	1222	False	False	False
4291401A3120	620924002	シスプラチン点滴静注液５０ｍｇ「ファイザー」　１００ｍＬ	3874	True	True	True
4291410A1150	622437201	オキサリプラチン点滴静注液５０ｍｇ／１０ｍＬ「ＫＣＣ」	6832	True	True	True
4291410A3030	622437401	オキサリプラチン点滴静注液２００ｍｇ／４０ｍＬ「ＫＣＣ」	16557	True	True	True
4291410A3080	622434901	オキサリプラチン点滴静注液２００ｍｇ「ＮＫ」　４０ｍＬ	22504	True	True	True
4291410A3110	622411901	オキサリプラチン点滴静注２００ｍｇ「トーワ」　４０ｍＬ	22504	True	True	True
4411400A2030	620931001	ジフェンヒドラミン塩酸塩注３０ｍｇ「日新」　１．５％２ｍＬ	57	False	False	False
6112401A1160	621064701	クリンダマイシンリン酸エステル注３００ｍｇ「Ｆ」	147	False	False	False
6139504F3041	622408701	ピスルシン静注用３ｇ	345	True	True	False
6241010C1040	622413901	トスフロキサシントシル酸塩細粒小児用１５％「トーワ」　１５０ｍｇ	175.3	True	True	False
6241013F3310	622435401	レボフロキサシン錠５００ｍｇ「ＳＵＮ」　レボフロキサシンとして	70.6	True	True	False
6290004M1070	621629201	イトラコナゾールカプセル５０ｍｇ「ＳＷ」	113.9	True	True	False
6290005F1300	621748401	テルビナフィン錠１２５ｍｇ「トーワ」	86.8	True	True	False
6343410X3110	621155501	献血アルブミン２０％静注４ｇ／２０ｍＬ「ニチヤク」	2394	False	False	False
1112700X1011	661110004	ハロタン	53.8	False	False	False
1115403D3051	620009267	チトゾール注用０．５ｇ　５００ｍｇ（溶解液付）	479	False	False	False
1115403D4031	620009266	チトゾール注用０．３ｇ　３００ｍｇ（溶解液付）	467	False	False	False
1116700X1010	661110006	亜酸化窒素	2.9	False	False	False
1116700X1061	620006769	液化亜酸化窒素（日産）	3.6	False	False	False
1119400A1031	620002195	ケタラール静注用２００ｍｇ　２０ｍＬ	718	False	False	False
1119402A1030	620000199	１％プロポフォール注「マルイシ」　２００ｍｇ２０ｍＬ	576	True	True	False
1119402A2100	620008542	プロポフォール１％静注５０ｍＬ「日医工」　５００ｍｇ	747	True	True	False
1119402A3050	622207301	プロポフォール１％静注１００ｍＬ「日医工」　１ｇ	1198	True	True	False
1119402G2021	640451018	１％ディプリバン注－キット　５００ｍｇ５０ｍＬ	1626	False	False	False
1121001X1220	620008429	ブロムワレリル尿素「ＪＧ」	8.5	False	False	False
1123700J1020	661120001	エスクレ坐剤「２５０」　２５０ｍｇ	34.9	False	False	False
1124001F1030	610453022	エスタゾラム錠１ｍｇ「アメル」	5.9	True	True	False
1124003B1070	620003589	ネルボン散１％	15.2	False	True	True
1124003F1021	611120077	ベンザリン錠２　２ｍｇ	5.9	False	False	True
1124003F2230	610454053	ネルボン錠５ｍｇ	9.7	False	True	True
1124003F2281	620034901	ニトラゼパム錠５ｍｇ「イセイ」	5.5	True	True	True
1124003F2290	620034702	ニトラゼパム錠５ｍｇ「テバ」	5.5	True	True	True
8119003G3021	622550001	ナルサス錠１２ｍｇ	990.2	False	False	False
1124003F3121	611120076	ベンザリン錠１０　１０ｍｇ	15	False	True	True
1124005F1020	611120013	ソメリン錠５ｍｇ	16.9	False	False	False
1124007F1020	611120117	ハルシオン０．１２５ｍｇ錠	8.4	False	True	False
1124007F1070	622015001	トリアゾラム錠０．１２５ｍｇ「ＪＧ」	5.7	True	True	False
1190015F1020	622541501	レミッチＯＤ錠２．５μｇ	1009.9	False	True	False
1124007F2190	622075501	トリアゾラム錠０．２５ｍｇ「ＥＭＥＣ」	5.9	True	True	False
1124007F2220	620037802	トリアゾラム錠０．２５ｍｇ「テバ」	5.9	True	True	False
1124008F2020	611120088	サイレース錠２ｍｇ	13.6	False	True	False
1124008F2071	622109201	フルニトラゼパム錠２ｍｇ「ＪＧ」	5.9	True	True	False
1124009F1010	622706300	ブロチゾラム０．２５ｍｇ錠	10.1	True	True	False
1124009F1290	622015401	ブロチゾラム錠０．２５ｍｇ「ＪＧ」	10.1	True	True	False
1190017F3021	622538401	リリカＯＤ錠１５０ｍｇ	149.6	False	True	False
1124010F1021	611120118	エバミール錠１．０　１ｍｇ	18.1	False	False	False
1124010F1030	611120119	ロラメット錠１．０　１ｍｇ	18.7	False	False	False
1124013B1031	611170180	セレナール散１０％	36	False	False	False
1124017F2151	611170373	ホリゾン錠２ｍｇ	6	False	True	False
1124017F4090	611170133	ジアパックス錠５ｍｇ	5.8	True	True	False
1124017F4200	620003152	ジアゼパム錠５ｍｇ「アメル」	5.8	True	True	False
1124019F1030	620004462	エリスパン錠０．２５ｍｇ	7.5	False	False	False
1124020F2030	611170435	レキソタン錠２　２ｍｇ	5.9	False	True	False
1124020F4040	620047401	セニラン錠５ｍｇ	6.2	True	True	False
1124022F2071	611170471	ワイパックス錠１．０　１ｍｇ	9.1	False	True	False
1124022F2110	620049401	ロラゼパム錠１ｍｇ「サワイ」	5.7	True	True	False
1124023F1100	620006836	アルプラゾラム錠０．４ｍｇ「トーワ」	5.7	True	True	False
1124023F2050	622012201	アルプラゾラム錠０．８ｍｇ「トーワ」	6.2	True	True	False
1124024F1031	620006912	コレミナール錠４ｍｇ	7.9	False	False	False
1124025C1030	620007121	メレックス細粒０．１％	12.5	False	False	False
1124028B1011	611170667	クロルジアゼポキシド散　１％	7.3	False	False	False
1124028B2050	611170775	バランス散１０％	38.4	False	False	False
1124028F1030	611170778	５ｍｇコントール錠	9.8	False	False	False
1124028F2010	611170670	クロルジアゼポキシド錠　１０ｍｇ	9.8	False	False	False
1124029F2090	620054701	ロフラゼプ酸エチル錠２ｍｇ「サワイ」	9.8	True	True	False
1124030F1061	620005383	クアゼパム錠１５ｍｇ「トーワ」	41.3	True	True	False
1124030F1070	620005384	クアゼパム錠１５ｍｇ「日医工」	41.3	True	True	False
1124030F2041	620005388	クアゼパム錠２０ｍｇ「ＹＤ」	39.1	True	True	False
1124030F2050	620005387	クアゼパム錠２０ｍｇ「トーワ」	48.9	True	True	False
1124401A1060	620004200	ミダゾラム注１０ｍｇ「サンド」　２ｍＬ	63	True	True	False
1124402A1030	640454021	セルシン注射液５ｍｇ	61	False	True	False
1124402A2061	620005169	ジアゼパム注射液１０ｍｇ「タイヨー」	59	True	True	False
1125002X1011	611120058	バルビタール	10	False	False	False
1125003B2031	620000465	フェノバール散１０％	7.6	False	False	True
1125003B2120	611120159	フェノバルビタール散１０％「ホエイ」	7.3	False	False	True
1125004S1030	620003603	フェノバールエリキシル０．４％	3.9	False	False	True
1125006F1030	620005131	ラボナ錠５０ｍｇ	8.9	False	False	False
1125700J2021	661120004	ルピアール坐剤２５　２５ｍｇ	37.9	False	False	True
1125700J5020	661120003	ルピアール坐剤１００　１００ｍｇ	63.3	False	False	True
1126002X1051	611120085	臭化ナトリウム	8.35	False	False	True
1129004Q1031	620006049	トリクロリールシロップ１０％	10.6	False	False	False
1129006F1021	611120113	リスミー錠１ｍｇ	15.2	False	True	False
1129006F1030	620001977	塩酸リルマザホン錠１「ＭＥＥＫ」　１ｍｇ	9.1	True	True	False
7219416P1020	622547001	オプチレイ３５０注シリンジ１３５ｍＬ　７４．１％	8587	False	False	False
1129007F2081	622012001	アモバンテス錠１０　１０ｍｇ	7.7	True	True	False
1129008F1071	620008024	タンドスピロンクエン酸塩錠５ｍｇ「日医工」	8.2	True	True	False
1129008F2051	620008025	タンドスピロンクエン酸塩錠１０ｍｇ「アメル」	13.8	True	True	False
1129008F2060	620008026	タンドスピロンクエン酸塩錠１０ｍｇ「サワイ」	13.8	True	True	False
2290402G1020	622586701	ファセンラ皮下注３０ｍｇシリンジ　１ｍＬ	358045	False	False	False
1129008F3031	620009349	タンドスピロンクエン酸塩錠２０ｍｇ「トーワ」	26.4	True	True	False
1129008F3040	621948601	タンドスピロンクエン酸塩錠２０ｍｇ「アメル」	26.4	True	True	False
1129009F1041	622179001	ゾルピデム酒石酸塩錠５ｍｇ「ＡＦＰ」	10.1	True	True	False
1129009F1050	622174901	ゾルピデム酒石酸塩錠５ｍｇ「ＤＫ」	10.1	True	True	False
1129009F1181	622152201	ゾルピデム酒石酸塩錠５ｍｇ「ＺＥ」	10.9	True	True	False
1129009F1211	622138301	ゾルピデム酒石酸塩錠５ｍｇ「オーハラ」	10.9	True	True	False
1129009F1220	622175801	ゾルピデム酒石酸塩錠５ｍｇ「杏林」	10.1	True	True	False
1129009F1270	622159601	ゾルピデム酒石酸塩錠５ｍｇ「テバ」	10.9	True	True	False
1129009F1300	622153301	ゾルピデム酒石酸塩錠５ｍｇ「日新」	10.9	True	True	False
1129009F2021	610443048	マイスリー錠１０ｍｇ	54.6	False	True	False
1129009F2030	622159901	ゾルピデム酒石酸塩錠１０ｍｇ「ＡＡ」	17.9	True	True	False
1129009F2080	622137101	ゾルピデム酒石酸塩錠１０ｍｇ「ＥＥ」	17.9	True	True	False
1129009F2110	622166201	ゾルピデム酒石酸塩錠１０ｍｇ「ＪＧ」	14.1	True	True	False
1129009F2161	622156201	ゾルピデム酒石酸塩錠１０ｍｇ「ＴＣＫ」	17.9	True	True	False
1129009F2170	622150501	ゾルピデム酒石酸塩錠１０ｍｇ「ＹＤ」	17.9	True	True	False
1129009F2200	622144201	ゾルピデム酒石酸塩錠１０ｍｇ「アメル」	14.1	True	True	False
1129009F2250	622176501	ゾルピデム酒石酸塩錠１０ｍｇ「サンド」	14.1	True	True	False
1129009F2331	622134201	ゾルピデム酒石酸塩錠１０ｍｇ「明治」	17.9	True	True	False
1129009F3060	622279601	ゾルピデム酒石酸塩ＯＤ錠５ｍｇ「トーワ」	10.9	True	True	False
1129009F4040	622168101	ゾルピデム酒石酸塩ＯＤ錠１０ｍｇ「サワイ」	17.9	True	True	False
1129009S2020	622145401	ゾルピデム酒石酸塩内用液１０ｍｇ「タカタ」　２ｍＬ	94.9	True	True	False
1129010F3020	622149001	ルネスタ錠３ｍｇ	94.6	False	False	False
1132002B1060	610421006	アレビアチン散１０％	12.1	False	False	True
1132002F1010	611130046	フェニトイン錠　２５ｍｇ	12.1	False	False	True
1132002F2041	611130096	アレビアチン錠１００ｍｇ	12.9	False	False	True
1132401A1020	622093701	ホストイン静注７５０ｍｇ　１０ｍＬ	6461	False	False	True
1139001B1031	620004946	エピレオプチマル散５０％	37.9	False	False	True
1139002F1070	610453041	カルバマゼピン錠２００ｍｇ「アメル」	6.4	True	True	True
1139003C2040	620003653	リボトリール細粒０．５％	45.9	False	False	True
1139003F1040	620003654	リボトリール錠０．５ｍｇ	9.3	False	False	True
1139003F3051	620007134	ランドセン錠２ｍｇ	22.4	False	False	True
1139004C2061	620003578	デパケン細粒４０％	20.2	False	True	True
1139004C2070	622042801	バルプロ酸ナトリウム細粒４０％「ＥＭＥＣ」	16	True	True	True
1139004G1040	620066101	デパケンＲ錠１００ｍｇ	9.1	False	True	True
1139004G2071	621748201	バルプロ酸Ｎａ徐放Ｂ錠２００ｍｇ「トーワ」	10.3	True	True	True
1139004Q1100	620006033	デパケンシロップ５％	7.7	False	True	True
1139005F1040	621390901	ゾニサミド錠１００ｍｇ「アメル」	15.4	True	True	True
1139006C1030	620000139	マイスタン細粒１％	30.6	False	False	True
1139008F3020	622013901	トピナ錠２５ｍｇ	49.2	False	True	True
1139009F1021	620008562	ラミクタール錠小児用２ｍｇ	10.5	False	True	True
1139009F4020	620008565	ラミクタール錠１００ｍｇ	168.6	False	True	True
1139010F2020	621997501	イーケプラ錠５００ｍｇ	203.5	False	False	True
1139010R1020	622254801	イーケプラドライシロップ５０％	224	False	False	True
1139011R2021	622183201	ディアコミットドライシロップ分包５００ｍｇ	1059.1	False	False	True
1139012F2020	622248401	イノベロン錠２００ｍｇ	136.6	False	False	True
1139104X1030	620067101	ヒダントールＥ配合錠	5.8	False	False	True
1141001X1010	611140022	アセトアミノフェン	7.3	False	False	False
1141001X1070	611140788	ピレチノール	7.3	False	False	False
1141001X1100	620067311	カロナール原末	7.3	False	False	False
1141005C2030	620007098	ポンタール細粒９８．５％	23.1	False	False	False
1141005Q1081	620007100	ポンタールシロップ３．２５％	6.5	False	False	False
1141007C2020	620000032	カロナール細粒５０％	9	True	True	False
1141007F1080	620002636	アセトアミノフェン錠２００ｍｇ「ＮＰ」	6.7	True	True	False
1141007F1110	620002634	アセトアミノフェン錠２００「タツミ」　２００ｍｇ	6.7	True	True	False
1141700J1100	622131701	パラセタ坐剤小児用５０　５０ｍｇ	19.7	False	False	False
1141700J2050	661140180	カロナール坐剤１００　１００ｍｇ	19.7	False	False	False
1141700J2130	620002621	アンヒバ坐剤小児用１００ｍｇ	19.7	False	False	False
1141700J2181	622060802	アセトアミノフェン坐剤小児用１００ｍｇ「ＪＧ」	19.7	False	False	False
1141700J3021	661140091	アルピニー坐剤２００　２００ｍｇ	24.3	False	True	False
1141700J3110	620002622	アンヒバ坐剤小児用２００ｍｇ	24.8	False	True	False
1143001X1040	620000484	アスピリン「ケンエー」	3.56	False	False	False
1143001X1201	611140798	アスピリン「ヨシダ」	3.56	False	False	True
1144005X1010	611140216	スルピリン水和物	7.5	False	False	False
1144007X1010	611140448	ミグレニン	7.7	False	False	False
1169018F1020	622696101	エクフィナ錠５０ｍｇ	953.2	False	False	False
1144400A2200	620076107	スルピリン注２５０ｍｇ「ＮＰ」　２５％１ｍＬ	94	False	False	False
1144400A3010	641140047	スルピリン注射液　２５％２ｍＬ	94	False	False	False
1145003F1030	620007129	ランツジールコーワ錠３０ｍｇ	10.1	False	False	False
1145005M1020	611140828	インフリーカプセル１００ｍｇ	16.5	False	False	False
1145700J1010	661140022	インドメタシン坐剤　１２．５ｍｇ	19.7	False	False	False
1145700J1060	620078406	インドメタシン坐剤１２．５ｍｇ「ＪＧ」	19.7	False	False	False
1145700J2300	620078541	インドメタシン坐剤２５「ＮＰ」　２５ｍｇ	19.7	False	False	False
1145700J3101	661140242	インテバン坐剤５０　５０ｍｇ	19.7	False	False	False
1145700J3390	620078653	インドメタシン坐剤５０「ＮＰ」　５０ｍｇ	19.7	False	False	False
1147002F1471	620004439	アデフロニック錠２５ｍｇ	5.7	True	True	False
1147002F1560	620007096	ボルタレン錠２５ｍｇ	10.5	False	True	False
1169701S1020	622687201	ハルロピテープ８ｍｇ	400.2	False	False	False
1147002N1190	621212601	ジクロフェナクＮａ徐放カプセル３７．５ｍｇ「トーワ」	6.2	True	True	False
1147700J1090	661140274	ボンフェナック坐剤１２．５　１２．５ｍｇ	19.7	True	True	False
1147700J2061	661140080	ボルタレンサポ２５ｍｇ	38.8	False	True	False
1124020C1010	622706500	ブロマゼパム１％細粒	20.9	True	True	False
1147700J5010	622770500	ジクロフェナクナトリウム５０ｍｇキット	92.6	True	True	False
1148001F2101	611140236	ソランタール錠１００ｍｇ	10.9	False	False	False
1149001D1160	620007068	ブルフェン顆粒２０％	9.1	False	True	False
1249008F1010	622717200	アフロクアロン２０ｍｇ錠	6.9	True	True	False
1149001F1480	620090601	イブプロフェン錠１００ｍｇ「タイヨー」	5.1	True	True	False
1149010M1160	620007059	プラノプロフェンカプセル７５ｍｇ「日医工」	7.3	True	True	False
1149013F1091	611140446	ミグリステン錠２０　２０ｍｇ	12	False	False	False
1149015F2020	611140138	クリノリル錠１００　１００ｍｇ	12.3	False	False	False
1149017M1030	611140322	バキソカプセル１０　１０ｍｇ	8	False	True	False
1149017M2010	622710100	ピロキシカム２０ｍｇカプセル	5.7	True	True	False
6250115F1020	622660701	ジャルカ配合錠	5430	False	False	True
1149019F1480	620007150	ロキソプロフェン錠６０ｍｇ「ＥＭＥＣ」	9.8	True	True	False
1149019F1501	620007153	ロキプロナール錠６０ｍｇ	9.8	True	True	False
1149019F1510	620008625	サンロキソ錠６０ｍｇ	9.8	True	True	False
1149019F1560	620098801	ロキソニン錠６０ｍｇ	13.4	False	True	False
1149020F2020	611140689	カルフェニール錠８０ｍｇ	67.7	False	False	False
1124026F1340	621361508	トフィソパム錠５０ｍｇ「トーワ」	5.9	True	True	False
1149029F1130	620002516	ザルトプロフェン錠８０ｍｇ「日医工」	10.1	True	True	False
1149031F1030	611140861	オークル錠１００ｍｇ	56	False	True	False
1149032F1060	622022501	エトドラク錠１００ｍｇ「ＪＧ」	6.8	True	True	False
1149032F2031	610406383	オステラック錠２００　２００ｍｇ	22.6	False	True	False
1149033F1021	610406384	ジソペイン錠７５　７５ｍｇ	23.1	False	False	False
1149035F1020	620002431	モービック錠５ｍｇ	29.6	False	True	False
1149035F1080	620008126	メロキシカム錠５ｍｇ「ＴＣＫ」	11.8	True	True	False
1149035F1101	620008131	メロキシカム錠５ｍｇ「ＹＤ」	11.8	True	True	False
1149035F1110	620008114	メロキシカム錠５ｍｇ「アメル」	16.2	True	True	False
1149035F1160	620008124	メロキシカム錠５ｍｇ「タカタ」	16.2	True	True	False
1149035F2051	620008135	メロキシカム錠１０ｍｇ「ＮＰ」	16.3	True	True	False
1149035F2060	620008136	メロキシカム錠１０ｍｇ「ＮＰＩ」	16.3	True	True	False
1149035F2140	620008139	メロキシカム錠１０ｍｇ「サワイ」	24.6	True	True	False
1149035F2191	620008147	メロキシカム錠１０ｍｇ「日医工」	24.6	True	True	False
1149035F2221	621837803	メロキシカム錠１０ｍｇ「クニヒロ」	16.3	True	True	False
1149036F2021	610443080	ロルカム錠４ｍｇ	18.6	False	True	False
1149037F1020	620004857	セレコックス錠１００ｍｇ	69	False	True	False
1149115F1030	621499701	クリアミン配合錠Ｓ０．５	7	False	False	False
1149117F1020	622081101	トラムセット配合錠	53.3	False	True	False
1149403A1050	620003245	レペタン注０．２ｍｇ	125	False	True	False
1149407A1040	620006355	ロピオン静注５０ｍｇ　５ｍＬ	215	False	False	False
1149500A1101	620004649	カシミタール静注　２０ｍＬ	60	False	False	False
1149500A1110	620005153	カシワドール静注　２０ｍＬ	78	False	False	False
1149501A1130	621217201	ザルソロイチン静注１０ｍＬ	60	True	True	False
1149502A1070	640433061	ビーセルファ注　２ｍＬ	59	True	True	False
1149502A1100	620007312	ジカベリン注２ｍＬ	59	True	True	False
1149503A1091	620004696	タイオゼット注５ｍＬ	61	True	True	False
1149601A1031	620004716	ノイロトロピン注射液１．２単位　１ｍＬ	86	False	False	False
1149703J1020	661140188	レペタン坐剤０．２ｍｇ	156.2	False	False	False
1149704S1020	622057601	ノルスパンテープ５ｍｇ	1588.3	False	False	False
1151001F1020	611150001	ヒロポン錠　１ｍｇ	300.7	False	False	False
1161001C1011	610461044	アマンタジン塩酸塩１０％細粒	7	True	True	False
1161001F1050	611240080	シンメトレル錠５０ｍｇ	13.6	False	True	False
1161001F1131	620117103	アマンタジン塩酸塩錠５０ｍｇ「サワイ」	5.9	True	True	False
1161001F1140	620117114	アマンタジン塩酸塩錠５０ｍｇ「杏林」	5.9	True	True	False
1164001F1060	620008662	ドパゾール錠２００ｍｇ	16.8	False	False	False
1164001M2031	620008660	ドパストンカプセル２５０ｍｇ	20.4	False	False	False
1164400A2041	620008890	ドパストン静注５０ｍｇ　０．２５％２０ｍＬ	253	False	False	False
1169001F1121	611240425	パーキネス錠２　２ｍｇ	8.7	False	False	False
1169001F1210	620119906	トリヘキシフェニジル塩酸塩錠２ｍｇ「タイヨー」	8.7	False	False	False
1169003F1031	620006053	トリモール錠２ｍｇ	5.9	False	False	False
1169005F1200	620008688	パーロデル錠２．５ｍｇ	49.7	False	True	False
1169005F1260	620121802	ブロモクリプチン錠２．５ｍｇ「フソー」	46.1	True	True	False
1141007F2051	622556901	アセトアミノフェン錠３００ｍｇ「マルイシ」	7.6	True	True	False
1169006M2030	620004009	ドロキシドパカプセル２００ｍｇ「アメル」	72.7	True	True	False
1169008F1050	620002857	メシル酸ペルゴリド錠５０μｇ「アメル」	18.3	True	True	False
1169009F1020	610409337	ドミン錠０．４　０．４ｍｇ	125	False	False	False
1169010F1031	620003975	セレギリン塩酸塩錠２．５ｍｇ「アメル」	166.3	True	True	False
1169010F1040	620005511	セレギリン塩酸塩錠２．５ｍｇ「タイヨー」	166.3	True	True	False
1169010F2020	620005364	エフピーＯＤ錠２．５　２．５ｍｇ	294.9	False	True	False
1169011F2040	620005376	カベルゴリン錠１．０ｍｇ「サワイ」　１ｍｇ	113.9	True	True	False
1169012F1030	622231601	プラミペキソール塩酸塩錠０．１２５ｍｇ「ＡＡ」	14.4	True	True	False
1169012F1090	622249201	プラミペキソール塩酸塩錠０．１２５ｍｇ「ＭＥＥＫ」	14.4	True	True	False
1169012F1111	622253501	プラミペキソール塩酸塩錠０．１２５ｍｇ「ＴＣＫ」	14.4	True	True	False
1169012F1120	622233901	プラミペキソール塩酸塩錠０．１２５ｍｇ「ＹＤ」	14.4	True	True	False
9000000Z0020	710010093	ペンニードル３２Ｇ	17	False	False	False
1169012F1170	622229801	プラミペキソール塩酸塩錠０．１２５ｍｇ「日医工」	14.4	True	True	False
1169012F1200	622272601	プラミペキソール塩酸塩錠０．１２５ｍｇ「ファイザー」	14.4	True	True	False
1169017F2021	622624401	アジレクト錠１ｍｇ	963.6	False	False	False
1169012F2061	622247401	プラミペキソール塩酸塩錠０．５ｍｇ「ＦＦＰ」	50.4	True	True	False
1169012F2070	622257501	プラミペキソール塩酸塩錠０．５ｍｇ「ＪＧ」	50.4	True	True	False
1169012F2150	622256501	プラミペキソール塩酸塩錠０．５ｍｇ「サワイ」	50.4	True	True	False
1169012F4021	622236001	プラミペキソール塩酸塩ＯＤ錠０．５ｍｇ「トーワ」	50.4	True	True	False
1169013F3020	620004417	レキップ錠２ｍｇ	259.2	False	True	False
1169014F1021	620004853	コムタン錠１００ｍｇ	162	False	True	False
1169016F1020	622245801	ノウリアスト錠２０ｍｇ	796.9	False	False	False
1169100F1060	620123701	ネオドパゾール配合錠	31	False	False	False
1169101F1120	620123901	ネオドパストン配合錠Ｌ１００	23.6	False	True	False
1169101F1170	620124201	ドパコール配合錠Ｌ１００	10.3	True	True	False
1169101F2061	622050801	カルコーパ配合錠Ｌ２５０	24.8	True	True	False
1169101F2070	622080201	ドパコール配合錠Ｌ２５０	24.8	True	True	False
1169700S2021	622163601	ニュープロパッチ４．５ｍｇ	402.7	False	False	False
1171001F2010	611170483	クロルプロマジン塩酸塩錠　２５ｍｇ	9.4	False	False	True
1171400A1040	641170052	コントミン筋注１０ｍｇ　０．５％２ｍＬ	94	False	False	True
1171400A2011	641170032	クロルプロマジン塩酸塩注射液　０．５％５ｍＬ	94	False	False	True
1172004B1030	610463156	ピーゼットシー散１％	9.1	False	False	True
1172006F1030	611170751	トリラホン錠２ｍｇ	9.8	False	False	True
1172006F2010	611170365	ペルフェナジン錠　４ｍｇ	9.8	False	False	True
1172010F1010	611170376	プロクロルペラジンマレイン酸塩錠　５ｍｇ	9.8	False	False	True
1172013F1030	620000502	ピーゼットシー糖衣錠２ｍｇ	9.4	False	False	True
1172013F2010	611170378	ペルフェナジンマレイン酸塩錠　４ｍｇ	9.4	False	False	True
2149041F2361	622340502	バルサルタン錠４０ｍｇ「Ｍｅ」	14.1	True	True	False
1172014F2120	610453151	レボトミン錠２５ｍｇ	5.7	False	False	True
1172014F3070	610453152	レボトミン錠５０ｍｇ	5.9	False	False	True
1172403A1040	640463138	レボトミン筋注２５ｍｇ　２．５％１ｍＬ	57	False	False	True
1172405A1031	640463106	フルデカシン筋注２５ｍｇ　１ｍＬ	1487	False	False	True
1174005B1020	611170141	スルモンチール散１０％	40.2	False	False	True
1179001M1020	611170035	アモキサンカプセル１０ｍｇ	5.9	False	False	True
1149019C1181	620098702	ロキソプロフェンＮａ細粒１０％「ＴＣＫ」	11	True	True	False
1179006B1030	610454077	プロピタン散１０％	25.4	False	False	True
1179006F1031	620006113	プロピタン錠５０ｍｇ	13.3	False	False	True
1179011B1030	620007093	ホーリット散１０％	57.1	False	False	True
1179011F2020	611170369	ホーリット錠４０ｍｇ	23.7	False	False	True
1179012F1150	620137902	クロチアゼパム錠５ｍｇ「日医工」	5.7	True	True	True
1179012F2050	622012501	クロチアゼパム錠１０ｍｇ「トーワ」	8.3	True	True	True
1179015F1030	610454036	スピロピタン錠０．２５ｍｇ	5.9	False	False	True
1179016F1191	620139302	スルピリド錠１００ｍｇ「サワイ」	6.4	True	True	True
1179016F2090	611170250	ドグマチール錠２００ｍｇ	18.4	False	True	True
1179016F2120	620002522	スルピリド錠２００ｍｇ「アメル」	8	True	True	True
1179017F2060	610463105	炭酸リチウム錠２００ｍｇ「アメル」	7.1	True	True	True
1179019F1071	620141002	ヒドロキシジンパモ酸塩錠２５ｍｇ「日新」	5.7	True	True	True
1179019Q1030	620003500	アタラックス－Ｐシロップ０．５％	2.6	False	False	True
1179020C1191	620000063	セレネース細粒１％	41.2	False	True	True
1179020C1221	620004385	ハロペリドール細粒１％「トーワ」	7.5	True	True	True
1179020C1280	620141915	ハロペリドール細粒１％「アメル」	7.5	True	True	True
1179020F1210	610453063	セレネース錠０．７５ｍｇ	7.9	False	True	True
1179020F2100	621392301	ハロペリドール錠１ｍｇ「アメル」	6.1	True	True	True
1179020F3280	620007040	ハロペリドール錠１．５ｍｇ「ツルハラ」	6.1	True	True	True
1179020S1030	620000064	セレネース内服液０．２％	19.3	False	False	True
1179023F3020	611170359	ベタナミン錠５０ｍｇ	48.6	True	True	True
1179024C2021	611170466	ロドピン細粒５０％	237.1	False	True	True
1179024F1030	611170468	ロドピン錠２５ｍｇ	15	False	True	True
1179024F2010	622713100	ゾテピン５０ｍｇ錠	10.4	True	True	True
1179025C1011	622713300	エチゾラム１％細粒	23	True	True	True
1179025F3010	622713600	エチゾラム０．２５ｍｇ錠	5.9	True	True	True
1179025F1220	622123801	エチゾラム錠０．５ｍｇ「ＮＰ」	6.4	True	True	True
1179025F1271	620149701	エチゾラム錠０．５ｍｇ「ＫＮ」	6.4	True	True	True
1179025F1280	620149801	エチゾラム錠０．５ｍｇ「ＴＣＫ」	6.4	True	True	True
1179025F1301	620148601	エチゾラム錠０．５ｍｇ「トーワ」	6.4	True	True	True
1179025F2170	622075701	エチゾラム錠１ｍｇ「ＥＭＥＣ」	9.8	True	True	True
1179025F2200	620150302	エチゾラム錠１ｍｇ「アメル」	6.5	True	True	True
1179025F2251	622078102	エチゾラム錠１ｍｇ「ツルハラ」	6.5	True	True	True
1179025F2260	620150306	エチゾラム錠１ｍｇ「トーワ」	6.5	True	True	True
1179026C1040	610463124	トロペロン細粒１％	102.1	False	True	True
1179026F1020	611170519	トロペロン錠０．５ｍｇ	7.1	False	True	True
1179028C1090	620151601	ブロムペリドール細粒１％「アメル」	31.7	True	True	True
1179028F2131	620152501	ブロムペリドール錠３ｍｇ「アメル」	9.1	True	True	True
1179028F2140	620152401	ブロムペリドール錠３ｍｇ「サワイ」	9.1	True	True	True
1179030D1050	610463069	クロフェクトン顆粒１０％	78	False	False	True
1179030F3020	611170666	クロフェクトン錠５０ｍｇ	41.2	False	False	True
1179042G2021	622574001	ビプレッソ徐放錠１５０ｍｇ	177.8	False	False	True
1179033F1020	611170221	テトラミド錠１０ｍｇ	13.9	False	False	True
1179034F1050	620006988	テシプール錠１ｍｇ	13.4	False	True	True
1179035F1020	611170817	クレミン錠１０ｍｇ	15.4	False	False	True
1179036F2020	611170821	エミレース錠１０ｍｇ	55.3	False	False	True
1179038C1051	620005590	リスペリドン細粒１％「ＮＰ」	113.2	True	True	True
1319824Q1020	622698001	アイベータ配合点眼液	451.3	False	False	False
1179038C1140	620005599	リスペリドン細粒１％「ヨシトミ」	113.2	True	True	True
1179038F1031	620005609	リスペリドン錠１ｍｇ「ＣＨ」	10.1	True	True	True
1179038F1040	620005602	リスペリドン錠１「ＭＥＥＫ」　１ｍｇ	10.1	True	True	True
1179038F1090	620005607	リスペリドン錠１ｍｇ「サワイ」	12.5	True	True	True
1179038F1120	620005611	リスペリドン錠１ｍｇ「日医工」	12.5	True	True	True
1179038F1171	620009457	リスペリドン錠１ｍｇ「トーワ」	10.1	True	True	True
1179038F1180	621782803	リスペリドン錠１ｍｇ「クニヒロ」	10.1	True	True	True
1179038F2011	622325200	リスペリドン２ｍｇ錠	12	True	True	True
1179038F2020	610409341	リスパダール錠２ｍｇ	39.1	False	True	True
1179038F2070	620005616	リスペリドン錠２ｍｇ「アメル」	12	True	True	True
1179038F2151	620005626	リスペリドン錠２ｍｇ「ヨシトミ」	22.4	True	True	True
1179038F3131	620009458	リスペリドン錠３「ＭＥＥＫ」　３ｍｇ	33.2	True	True	True
1179038F4090	622224102	リスペリドン錠０．５ｍｇ「ファイザー」	10.1	True	True	True
1179038F5061	621944901	リスペリドンＯＤ錠１ｍｇ「トーワ」	12.5	True	True	True
1179038F5070	622043901	リスペリドンＯＤ錠１ｍｇ「ヨシトミ」	12.5	True	True	True
1179038F6041	621949401	リスペリドンＯＤ錠２ｍｇ「アメル」	12	True	True	True
1179038F6050	621944101	リスペリドンＯＤ錠２ｍｇ「タカタ」	12	True	True	True
1179038F7021	621939801	リスパダールＯＤ錠０．５ｍｇ	13.3	False	True	True
1179038F7030	622093901	リスペリドンＯＤ錠０．５ｍｇ「タカタ」	10.1	True	True	True
1179038F8060	622044101	リスペリドンＯＤ錠３ｍｇ「ヨシトミ」	33.2	True	True	True
1179038S1021	610462014	リスパダール内用液１ｍｇ／ｍＬ　０．１％	67.1	False	True	True
1179038S1030	620005633	リスペリドン内用液１ｍｇ／ｍＬ「アメル」　０．１％	29.2	True	True	True
1149032F1140	622034902	エトドラク錠１００ｍｇ「日医工」	6.8	True	True	False
1179038S1080	621975402	リスペリドン内用液１ｍｇ／ｍＬ「ＭＥＥＫ」　０．１％	29.2	True	True	True
1179038S2060	621807702	リスペリドン内用液０．５ｍｇ分包ファイザー　０．１％０．５ｍＬ	19.9	True	True	True
2190039F1020	622698601	コララン錠２．５ｍｇ	82.9	False	False	False
1179038S5051	622008102	リスペリドン内用液３ｍｇ分包「ファイザー」　０．１％３ｍＬ	78.5	True	True	True
1179039F1060	622021101	フルボキサミンマレイン酸塩錠２５ｍｇ「ＦＦＰ」	11.3	True	True	True
1179039F1141	622010601	フルボキサミンマレイン酸塩錠２５ｍｇ「サワイ」	11.3	True	True	True
1179039F1150	622004401	フルボキサミンマレイン酸塩錠２５ｍｇ「タカタ」	15.5	True	True	True
1179039F2040	622018201	フルボキサミンマレイン酸塩錠５０ｍｇ「ＣＨ」	20.3	True	True	True
1179039F2121	622031201	フルボキサミンマレイン酸塩錠５０ｍｇ「杏林」	20.3	True	True	True
1179039F2180	622055101	フルボキサミンマレイン酸塩錠５０ｍｇ「トーワ」	27.4	True	True	True
1179039F3020	620006991	デプロメール錠７５　７５ｍｇ	68.6	False	True	True
1179039F3071	622022902	フルボキサミンマレイン酸塩錠７５ｍｇ「ＪＧ」	37.6	True	True	True
1179039F3080	622032701	フルボキサミンマレイン酸塩錠７５ｍｇ「ＮＰ」	27.4	True	True	True
1179039F3101	622000301	フルボキサミンマレイン酸塩錠７５ｍｇ「ＹＤ」	27.4	True	True	True
1179039F3110	622001101	フルボキサミンマレイン酸塩錠７５ｍｇ「アメル」	27.4	True	True	True
1179039F3160	622035201	フルボキサミンマレイン酸塩錠７５ｍｇ「日医工」	27.4	True	True	True
1179040F1071	620008093	ミルナシプラン塩酸塩錠１５ｍｇ「ＴＹＫ」	10.3	True	True	True
1179040F1080	620008086	ミルナシプラン塩酸塩錠１５ｍｇ「アメル」	10.3	True	True	True
1179040F1110	620008094	ミルナシプラン塩酸塩錠１５ｍｇ「トーワ」	10.3	True	True	True
1149032F2180	621466601	エトドラク錠２００ｍｇ「日医工」	9.4	True	True	False
1179040F2051	620008099	ミルナシプラン塩酸塩錠２５ｍｇ「ＮＰ」	11.2	True	True	True
1179040F3031	621980301	ミルナシプラン塩酸塩錠１２．５ｍｇ「アメル」	9.6	True	True	True
1179040F3040	621993401	ミルナシプラン塩酸塩錠１２．５ｍｇ「サワイ」	9.6	True	True	True
1179040F3120	622055301	ミルナシプラン塩酸塩錠１２．５ｍｇ「トーワ」	9.6	True	True	True
2149041F3350	622333802	バルサルタン錠８０ｍｇ「ＢＭＤ」	20.8	True	True	False
1179040F4020	620008498	トレドミン錠５０ｍｇ	41.7	False	True	True
1179040F4070	621986901	ミルナシプラン塩酸塩錠５０ｍｇ「日医工」	23.7	True	True	True
1179041F1041	622175201	パロキセチン錠１０ｍｇ「ＤＫ」	26.3	True	True	True
1179041F1050	622170801	パロキセチン錠１０ｍｇ「ＤＳＥＰ」	26.3	True	True	True
1179041F1130	622164901	パロキセチン錠１０ｍｇ「ＮＰ」	21.6	True	True	True
1179041F1181	622138501	パロキセチン錠１０ｍｇ「オーハラ」	26.3	True	True	True
1179041F1190	622181001	パロキセチン錠１０ｍｇ「科研」	26.3	True	True	True
1179041F1211	622168301	パロキセチン錠１０ｍｇ「サワイ」	26.3	True	True	True
1179041F1220	622176701	パロキセチン錠１０ｍｇ「サンド」	26.3	True	True	True
1179041F1270	622152801	パロキセチン錠１０ｍｇ「日新」	21.6	True	True	True
1179041F1300	622133901	パロキセチン錠１０ｍｇ「明治」	26.3	True	True	True
1179041F2021	610443046	パキシル錠２０ｍｇ	131.7	False	True	True
1179041F2030	622160201	パロキセチン錠２０ｍｇ「ＡＡ」	47.1	True	True	True
1179041F2080	622154201	パロキセチン錠２０ｍｇ「ＦＦＰ」	47.1	True	True	True
1179041F2161	622150801	パロキセチン錠２０ｍｇ「ＹＤ」	35.2	True	True	True
1179041F2170	622144501	パロキセチン錠２０ｍｇ「アメル」	35.2	True	True	True
1179041F2200	622162901	パロキセチン錠２０ｍｇ「ケミファ」	70	True	True	True
1179041F2250	622141601	パロキセチン錠２０ｍｇ「トーワ」	47.1	True	True	True
1179041F3141	622162701	パロキセチン錠５ｍｇ「ケミファ」	21.8	True	True	True
1179041F3150	622168201	パロキセチン錠５ｍｇ「サワイ」	16.1	True	True	True
1179041F3230	622133801	パロキセチン錠５ｍｇ「明治」	16.1	True	True	True
1179041F3290	622234601	パロキセチン錠５ｍｇ「オーハラ」	16.1	True	True	True
1179041F3311	622283401	パロキセチン錠５ｍｇ「テバ」	16.1	True	True	True
1179041F5020	622141801	パロキセチンＯＤ錠２０ｍｇ「トーワ」	47.1	True	True	True
1179041G1020	622135901	パキシルＣＲ錠１２．５ｍｇ	75.4	False	False	True
1179042C1031	622193101	クエチアピン細粒５０％「ＥＥ」	188.6	True	True	True
1179042C1040	622200901	クエチアピン細粒５０％「アメル」	188.6	True	True	True
1179042F1011	622312900	クエチアピンフマル酸塩２５ｍｇ錠	10.1	True	True	True
1179042F1020	610443072	セロクエル２５ｍｇ錠	32	False	True	True
1179020F1260	620143102	ハロペリドール錠０．７５ｍｇ「ヨシトミ」	6	True	True	True
1179042F1070	622204101	クエチアピン錠２５ｍｇ「ＪＧ」	10.4	True	True	True
1179042F1100	622200601	クエチアピン錠２５ｍｇ「アメル」	10.1	True	True	True
1179020F3310	620144802	ハロペリドール錠１．５ｍｇ「ヨシトミ」	6.1	True	True	True
1179042F1151	622193901	クエチアピン錠２５ｍｇ「トーワ」	10.1	True	True	True
1179042F1160	622207801	クエチアピン錠２５ｍｇ「日医工」	10.4	True	True	True
3999445D1020	622587401	ベンリスタ点滴静注用１２０ｍｇ	16661	False	False	False
1179042F2050	622192901	クエチアピン錠１００ｍｇ「ＥＥ」	34.9	True	True	True
1179042F2131	622218001	クエチアピン錠１００ｍｇ「三和」	34.9	True	True	True
1179042F2140	622196201	クエチアピン錠１００ｍｇ「テバ」	34.9	True	True	True
1179042F2190	622180101	クエチアピン錠１００ｍｇ「明治」	34.9	True	True	True
1179042F3030	622185301	クエチアピン錠２００ｍｇ「ＡＡ」	48.5	True	True	True
1179042F3081	622203201	クエチアピン錠２００ｍｇ「ＭＥＥＫ」	65.8	True	True	True
1179042F3111	622218901	クエチアピン錠２００ｍｇ「サワイ」	65.8	True	True	True
1179042F3120	622214701	クエチアピン錠２００ｍｇ「サンド」	48.5	True	True	True
1179042F3170	622197701	クエチアピン錠２００ｍｇ「日新」	65.8	True	True	True
1179020F4081	620145202	ハロペリドール錠２ｍｇ「ヨシトミ」	6.2	True	True	True
1179042F5041	622237601	クエチアピン錠５０ｍｇ「アメル」	19.3	True	True	True
1179043F1040	622092401	ペロスピロン塩酸塩錠４ｍｇ「アメル」	8.3	True	True	True
1179044F3021	610451003	ジプレキサ錠１０ｍｇ	317.4	False	True	True
1179045B1021	620003478	エビリファイ散１％	125.9	False	True	True
1179045F2020	620003480	エビリファイ錠６ｍｇ	117.3	False	True	True
1179045F7021	622135501	エビリファイＯＤ錠２４ｍｇ	459.4	False	True	True
1179045S1021	620009105	エビリファイ内用液０．１％	61.3	False	False	True
1179048F3020	621980601	ロナセン錠８ｍｇ	202.5	False	True	True
1179049F1021	621926401	クロザリル錠２５ｍｇ	89.3	False	False	True
1179050M2020	621926201	ストラテラカプセル１０ｍｇ	241.8	False	True	True
1179053G2020	622028301	インヴェガ錠６ｍｇ	474	False	False	True
1179403A1050	620004712	ドグマチール筋注１００ｍｇ	136	False	False	True
1179404A1070	620000242	セレネース注５ｍｇ　０．５％１ｍＬ	91	False	False	True
1179408E1020	622210701	ジプレキサ筋注用１０ｍｇ	1962	False	False	True
1179409G2021	622278401	ゼプリオン水懸筋注５０ｍｇシリンジ	29368	False	False	True
1179409G5020	622278701	ゼプリオン水懸筋注１５０ｍｇシリンジ	61493	False	False	True
1180107D1131	620160501	ＰＬ配合顆粒	6.5	False	True	False
1179051F4010	622716300	ミルタザピン３０ｍｇ口腔内崩壊錠	53.7	True	True	True
1190004F1021	611190026	グラマリール錠２５ｍｇ	18.2	False	True	False
1190004F1161	620162004	チアプリド錠２５ｍｇ「テバ」	7.9	True	True	False
1190004F2010	622716600	チアプリド塩酸塩５０ｍｇ錠	10.1	True	True	False
1190004F2141	620162301	チアプリド塩酸塩錠５０ｍｇ「アメル」	10.1	True	True	False
1190004F2150	620162303	チアプリド錠５０ｍｇ「テバ」	10.1	True	True	False
1190008F1020	611190062	サノレックス錠０．５ｍｇ	189.5	False	False	False
1190011F1021	610421351	リルテック錠５０　５０ｍｇ	1417.7	False	True	False
1190011F1030	622266901	リルゾール錠５０ｍｇ「ＡＡ」	655.7	True	True	False
1190012C1020	610453016	アリセプト細粒０．５％	231.7	False	True	False
1190012F1050	622086701	ドネペジル塩酸塩錠３ｍｇ「ＤＳＰ」	57.3	True	True	False
1190012F1131	622087201	ドネペジル塩酸塩錠３ｍｇ「オーハラ」	57.3	True	True	False
1190012F1140	622123001	ドネペジル塩酸塩錠３ｍｇ「科研」	83.7	True	True	False
1190012F1190	622126701	ドネペジル塩酸塩錠３ｍｇ「サンド」	57.3	True	True	False
1190012F1220	622094801	ドネペジル塩酸塩錠３ｍｇ「タナベ」	57.3	True	True	False
1190012F1271	622112501	ドネペジル塩酸塩錠３ｍｇ「明治」	57.3	True	True	False
1190012F1280	622155301	ドネペジル塩酸塩錠３ｍｇ「ＮＰＩ」	34.7	True	True	False
1190012F1301	622097302	ドネペジル塩酸塩錠３ｍｇ「ＴＹＫ」	57.3	True	True	False
1190012F1310	622101002	ドネペジル塩酸塩錠３ｍｇ「テバ」	57.3	True	True	False
1190012F2081	622124101	ドネペジル塩酸塩錠５ｍｇ「ＮＰ」	54.6	True	True	False
1190012F2090	622105401	ドネペジル塩酸塩錠５ｍｇ「ＴＣＫ」	84	True	True	False
1190012F2111	622116401	ドネペジル塩酸塩錠５ｍｇ「ＹＤ」	54.6	True	True	False
1190012F2120	622092201	ドネペジル塩酸塩錠５ｍｇ「アメル」	84	True	True	False
1190012F2251	622107301	ドネペジル塩酸塩錠５ｍｇ「日新」	84	True	True	False
1190012F3061	622128601	ドネペジル塩酸塩ＯＤ錠３ｍｇ「ＫＯ」	34.7	True	True	False
1190012F3070	622124201	ドネペジル塩酸塩ＯＤ錠３ｍｇ「ＮＰ」	34.7	True	True	False
1190012F3100	622113301	ドネペジル塩酸塩ＯＤ錠３ｍｇ「ＺＥ」	57.3	True	True	False
1190012F3240	622112701	ドネペジル塩酸塩ＯＤ錠３ｍｇ「明治」	57.3	True	True	False
1190012F3290	622138701	ドネペジル塩酸塩ＯＤ錠３ｍｇ「オーハラ」	57.3	True	True	False
1190012F3320	622101202	ドネペジル塩酸塩ＯＤ錠３ｍｇ「テバ」	57.3	True	True	False
1190012F4041	622115201	ドネペジル塩酸塩ＯＤ錠５ｍｇ「ＦＦＰ」	84	True	True	False
1190012F4050	622113901	ドネペジル塩酸塩ＯＤ錠５ｍｇ「ＪＧ」	84	True	True	False
1190012F4130	622120601	ドネペジル塩酸塩ＯＤ錠５ｍｇ「杏林」	84	True	True	False
1190012F4181	622094301	ドネペジル塩酸塩ＯＤ錠５ｍｇ「タカタ」	84	True	True	False
1190012F4190	622095101	ドネペジル塩酸塩ＯＤ錠５ｍｇ「タナベ」	84	True	True	False
1190012F4211	622128901	ドネペジル塩酸塩ＯＤ錠５ｍｇ「日医工」	84	True	True	False
1190012F4220	622107501	ドネペジル塩酸塩ＯＤ錠５ｍｇ「日新」	84	True	True	False
1190012F4270	622170601	ドネペジル塩酸塩ＯＤ錠５ｍｇ「ＤＳＥＰ」	84	True	True	False
1190012F4300	622097602	ドネペジル塩酸塩ＯＤ錠５ｍｇ「ＴＹＫ」	84	True	True	False
1190012F5021	620005908	アリセプト錠１０ｍｇ	419.6	False	True	False
1190012F5080	622294101	ドネペジル塩酸塩錠１０ｍｇ「ＮＰ」	101.2	True	True	False
1179045B1030	622562001	アリピプラゾール散１％「アメル」	29.9	True	True	True
1190012F5110	622304201	ドネペジル塩酸塩錠１０ｍｇ「ＴＳＵ」	101.2	True	True	False
1190012F5161	622298601	ドネペジル塩酸塩錠１０ｍｇ「科研」	221.3	True	True	False
1190012F5170	622268901	ドネペジル塩酸塩錠１０ｍｇ「杏林」	146.7	True	True	False
1190012F5200	622274701	ドネペジル塩酸塩錠１０ｍｇ「タカタ」	146.7	True	True	False
1190012F5250	622282401	ドネペジル塩酸塩錠１０ｍｇ「日新」	146.7	True	True	False
1190012F6060	622288701	ドネペジル塩酸塩ＯＤ錠１０ｍｇ「ＪＧ」	146.7	True	True	False
1190012F6141	622275901	ドネペジル塩酸塩ＯＤ錠１０ｍｇ「アメル」	101.2	True	True	False
1190012F6150	622277701	ドネペジル塩酸塩ＯＤ錠１０ｍｇ「オーハラ」	146.7	True	True	False
1190012F6230	622284301	ドネペジル塩酸塩ＯＤ錠１０ｍｇ「テバ」	146.7	True	True	False
1190012F6281	622284901	ドネペジル塩酸塩ＯＤ錠１０ｍｇ「モチダ」	146.7	True	True	False
1190012F6290	622291601	ドネペジル塩酸塩ＯＤフィルム１０ｍｇ「ＥＥ」	221.3	True	True	False
1190012Q2031	622165201	ドネペジル塩酸塩内服ゼリー５ｍｇ「ＮＰ」	165.7	True	True	False
1190012Q2040	622173301	ドネペジル塩酸塩内服ゼリー５ｍｇ「日医工」	165.7	True	True	False
1190012Q3020	621958001	アリセプト内服ゼリー１０ｍｇ	452.8	False	True	False
1190012S2020	622142201	ドネペジル塩酸塩内用液５ｍｇ「トーワ」　２．５ｍＬ	165.7	True	True	False
1190014F1041	622167001	タルチレリン錠５ｍｇ「ＪＧ」	405.7	True	True	False
1190014F1050	622146201	タルチレリン錠５ｍｇ「アメル」	405.7	True	True	False
1190014F2021	621933301	セレジストＯＤ錠５ｍｇ	927.2	False	True	False
1190014F2030	622173101	タルチレリンＯＤ錠５ｍｇ「日医工」	405.7	True	True	False
1190017M3020	621983901	リリカカプセル１５０ｍｇ	149.6	False	True	False
1190018F2020	622047201	メマリー錠１０ｍｇ	240.1	False	True	False
1190019F3020	622046001	レミニール錠１２ｍｇ	217.6	False	True	False
1179045B1080	622556401	アリピプラゾール散１％「明治」	41.7	True	True	True
1190019F6020	622046301	レミニールＯＤ錠１２ｍｇ	217.6	False	True	False
1190020F1020	622135801	レグナイト錠３００ｍｇ	93.1	False	False	False
1190022H1020	622243701	レグテクト錠３３３ｍｇ	47.9	False	False	False
1190401A1031	622067401	エダラボン点滴静注３０ｍｇ「ＤＳＥＰ」　２０ｍＬ	2290	True	True	False
1190401A1171	622075201	エダラボン点滴静注液３０ｍｇ「ケミファ」　２０ｍＬ	2290	True	True	False
1190401A1201	622072401	エダラボン点滴静注液３０ｍｇ「日医工」　２０ｍＬ	1375	True	True	False
1190401A2020	622056501	エダラボン点滴静注３０ｍｇ「トーワ」　２０ｍＬ	1375	True	True	False
1190401G1050	622045101	エダラボン点滴静注３０ｍｇバッグ「タカタ」　１００ｍＬ	1404	True	True	False
1190401G1131	622063801	エダラボン点滴静注バッグ３０ｍｇ「ＮＳ」　１００ｍＬ	2047	True	True	False
1190401G1140	622071201	エダラボン点滴静注バッグ３０ｍｇ「ＹＤ」　１００ｍＬ	1404	True	True	False
1190401G1190	622147101	エダラボン点滴静注バッグ３０ｍｇ「ファイザー」　１００ｍＬ	1404	True	True	False
1190700S3021	622082301	イクセロンパッチ１３．５ｍｇ	381	False	True	False
1190700S3030	622085001	リバスタッチパッチ１３．５ｍｇ	377.5	False	True	False
1211400D2031	620008888	テトカイン注用２０ｍｇ「杏林」	80	False	False	False
1211401A3010	641210028	プロカイン塩酸塩注射液　０．５％５ｍＬ	94	False	False	False
1211401A3060	620164104	プロカイン塩酸塩注射液０．５％「日医工」　５ｍＬ	94	False	False	False
1211401A4040	641210058	塩プロ１％注「小林」　１ｍＬ	94	False	False	False
1211401A5071	620005864	ロカイン注１％　２ｍＬ	94	False	False	False
1211401A8011	641210034	プロカイン塩酸塩注射液　２％１ｍＬ	95	False	False	False
1211401A8070	620005866	ロカイン注２％　１ｍＬ	95	False	False	False
1214400A8051	620007263	キシロカイン注ポリアンプ１％　１０ｍＬ	92	False	False	False
1214400G2021	620002937	キシロカイン注シリンジ１％　１０ｍＬ	195	True	True	False
9000000Z0011	710010087	ホルモン製剤等注射用ディスポーザブル注射器	11	False	False	False
1214401A3011	641210022	リドカイン注射液　１％	9.7	False	False	False
1214401A3020	641210099	キシロカイン注射液１％	11.1	False	False	False
1214401A6010	641210025	リドカイン注射液　１０％１０ｍＬ	340	False	False	False
1214402A1021	641210090	０．５％カルボカイン注	10.9	False	False	False
1214402A1030	640431026	０．５％塩酸メピバカイン注「ＮＭ」	9.7	False	False	False
1214402A2010	641210040	メピバカイン塩酸塩注射液　１％	10.3	False	False	False
9000000Z0021	737810000	ロードーズ２９Ｇ	17	False	False	False
1214402A6040	620004313	カルボカインアンプル注０．５％　１０ｍＬ	106	False	False	False
1214402H1011	640422017	メピバカイン塩酸塩注射液　１％１０ｍＬ	105	False	False	False
1214402H4010	640422014	メピバカイン塩酸塩注射液　２％５ｍＬ	111	False	False	False
1214402H5041	620004319	カルボカインアンプル注２％　１０ｍＬ	151	False	False	False
1214403A5021	640443006	マーカイン注脊麻用０．５％等比重　４ｍＬ	375	False	False	False
1214405A2021	640451001	アナペイン注２ｍｇ／ｍＬ　０．２％１００ｍＬ	1227	False	False	False
1214405A5020	640451004	アナペイン注１０ｍｇ／ｍＬ　１％１０ｍＬ	545	False	False	False
1214406A1020	620000343	０．５％塩酸メピバカイン注ＰＢ　５ｍＬ	79	False	False	False
1214406A6021	620000264	２％塩酸メピバカイン注ＰＢ　１０ｍＬ	106	False	False	False
1214407A2020	620006813	ポプスカイン０．７５％注７５ｍｇ／１０ｍＬ	592	False	False	False
1214407G3020	620006810	ポプスカイン０．２５％注バッグ２５０ｍｇ／１００ｍＬ	1538	False	False	False
1214700Q1041	620003853	キシロカイン点眼液４％	16.5	False	False	False
1214701R1050	620003854	キシロカインポンプスプレー８％	22	True	True	False
1214701S1051	620007779	ペンレステープ１８ｍｇ　３０．５ｍｍ×５０．０ｍｍ	41.2	False	True	False
1214701S1060	622125101	リドカインテープ１８ｍｇ「ＮＰ」　３０．５ｍｍ×５０．０ｍｍ	32.2	True	True	False
1219003F1060	620169201	ピペリジノアセチルアミノ安息香酸エチル錠１００ｍｇ「日医工」	5.7	True	True	False
1224400A1010	641220012	スキサメトニウム塩化物注射液　２％１ｍＬ	94	False	False	False
1225001F2250	620003660	リンラキサー錠２５０ｍｇ	13.2	False	True	False
1225003D1031	620008779	ロバキシン顆粒９０％	15.8	False	False	False
1229404D1020	621893501	ボトックス注用５０単位	38199	False	False	False
1231001F1030	620007102	マイテラーゼ錠１０ｍｇ	20.4	False	False	False
1231009F1100	620174801	メペンゾラート臭化物錠７．５ｍｇ「ツルハラ」	5.7	True	True	False
1231010M1020	611230007	アボビスカプセル２５　２５ｍｇ	5.8	False	False	False
1231013M1040	620002525	チアトンカプセル５ｍｇ	7.8	False	True	False
1231013M1091	622012702	チキジウム臭化物カプセル５ｍｇ「トーワ」	5.9	True	True	False
1231014F1011	611230132	ジスチグミン臭化物錠　５ｍｇ	10.1	False	False	False
1232400X1031	620008364	オビソート注射用０．１ｇ　１００ｍｇ（溶解液付）	371	False	False	False
1233400A3020	620001300	ワゴスチグミン注２ｍｇ　０．０５％４ｍＬ	239	False	False	False
1242002F1330	620008704	ブスコパン錠１０ｍｇ	6.4	False	True	False
1242003F2021	611240064	コリオパン錠１０ｍｇ	14.3	False	False	False
1242003M1040	620004992	コリオパンカプセル５ｍｇ	8.4	False	False	False
1242401A1331	620008920	ブチルスコポラミン臭化物注２０ｍｇ「日医工」　２％１ｍＬ	57	True	True	False
1242405A1011	641240040	アトロピン硫酸塩注射液　０．０５％１ｍＬ	95	False	False	True
1242405A1070	620006609	アトロピン硫酸塩注０．５ｍｇ「フソー」　０．０５％１ｍＬ	95	False	False	True
8119401A1020	622625401	ナルベイン注２ｍｇ　１ｍＬ	738	False	False	False
1243001X1010	611240306	パパベリン塩酸塩	41.8	False	False	False
1244400A1030	620003221	静注用マグネゾール２０ｍＬ	395	False	False	False
1249004F1080	620003571	ダクチル錠５０ｍｇ	6.7	False	True	False
1249006F1011	611240458	バクロフェン錠　５ｍｇ	14.9	False	False	False
1249006F1020	611240049	ギャバロン錠５ｍｇ	15.3	False	False	False
1249007F2020	611240057	コスパノン錠８０ｍｇ	10.5	False	False	False
1249009D1030	611240249	ミオナール顆粒１０％	38.4	False	False	False
1249009F1090	611240248	ミオナール錠５０ｍｇ	13.6	False	True	False
1249009F1341	620006136	ミオリラーク錠５０ｍｇ	5.9	True	True	False
1249010F1271	621228130	チザニジン錠１ｍｇ「ＪＧ」	5.9	True	True	False
1249351B1010	611240298	ロートエキス散	7	False	False	False
1249351B1141	611310011	ロートエキス散「ホエイ」	7.3	False	False	False
1249351B1230	620008555	ロートエキス散「ＪＧ」	7.6	False	False	False
1311701Q1031	661310066	サイプレジン１％点眼液	81.6	False	False	False
1311707Q1071	620007742	ピバレフリン点眼液０．０４％	156.9	False	False	False
1312701Q5050	620199601	サンピロ点眼液４％　５ｍＬ	162.3	False	False	False
1312704Q2020	661310030	ウブレチド点眼液１％	212	False	False	False
1313700Q2070	620000402	ベノキシール点眼液０．４％	13.6	False	False	False
1314701X1011	662610068	ホウ酸	0.74	False	False	False
1314701X1070	620001389	ホウ酸「ケンエー」	2.28	False	False	False
1314701X1151	620200905	ホウ酸「東海」	0.74	False	False	False
1314701X1380	620200945	ホウ酸「ＮｉｋＰ」	2.28	False	False	False
1315701Q1081	620000379	サンテゾーン点眼液（０．０２％）	18	False	False	False
1315701Q1090	620009041	ビジュアリン点眼液０．０２％	12.8	True	True	False
3999044F2020	622633501	オルケディア錠２ｍｇ	410.9	False	False	False
1315701Q2061	620009042	ビジュアリン点眼液０．０５％	19.7	True	True	False
1315702Q1051	620004796	オルガドロン点眼・点耳・点鼻液０．１％	41.1	False	True	False
1315702Q1060	620006453	テイカゾン点眼・点耳・点鼻液０．１％	17.5	True	True	False
1315704Q3010	622770900	フルオロメトロン０．１％１ｍＬ点眼液	18.7	True	True	False
1315706Q2080	620005310	リノロサール眼科耳鼻科用液０．１％	20.8	True	True	False
1179045F1031	622552501	アリピプラゾール錠３ｍｇ「ＪＧ」	19.5	True	True	True
1316700Q1050	620004823	プリビナ点眼液０．５ｍｇ／ｍＬ　０．０５％	5.3	False	False	False
1317706Q1100	620006545	硫酸ゲンタマイシン点眼液０．３％「ニットー」　３ｍｇ	17.9	True	True	False
1317712M1031	620207301	ピマリシン眼軟膏１％「センジュ」　１０ｍｇ	604.8	False	False	False
1319701Q1021	661310208	ミケラン点眼液１％	170.8	False	True	False
1319701Q4020	620004892	ミケランＬＡ点眼液２％	459.7	False	True	False
1319702Q2111	620003860	チモプトール点眼液０．５％	181.8	False	True	False
1319702Q3061	622264601	チモロールＸＥ点眼液０．２５％「ニットー」	261.7	True	True	False
1319702Q4041	622290101	チモロールＸＥ点眼液０．５％「ＴＳ」	285.8	True	True	False
1319702Q4050	622268801	チモロールＸＥ点眼液０．５％「杏林」	320.4	True	True	False